"messageId","externalId","productId","messageChannelId","messageTopicId","messageName","messageDescription","createdAt","updatedAt","repActionChannelId","lastPhysicalMessageUID"
1,"a3RA0000000e0taMAA",1001,1,1564,"Chantix Flex Quit RTE","Chantix Flex Quit RTE","2017-06-30 23:12:08","2017-06-30 23:12:08",1,"a3RA0000000Mfu2MAC"
2,"a3RA0000000EB8zMAG",1001,1,5,"CHANTIX Dosing RTE_I wanted to provide you with","CHANTIX Dosing RTE_I wanted to provide you with","2017-06-30 23:12:08","2017-06-30 23:12:08",1,"a3RA0000000EB8zMAG"
3,"a3RA0000000e0uGMAQ",1001,1,1564,"Chantix Benefits of Quitting RTE","Chantix Benefits of Quitting RTE","2017-06-30 23:12:08","2017-06-30 23:12:08",1,"a3RA0000000e483MAA"
4,"a3RA0000000EB93MAG",1001,1,1564,"CHANTIX NPS RTE_I wanted to provide you with some information","CHANTIX NPS RTE_I wanted to provide you with some information","2017-06-30 23:12:08","2017-06-30 23:12:08",1,"a3RA0000000EB93MAG"
5,"a3RA0000000EB8yMAG",1001,1,1564,"CHANTIX  Flex Quit RTE_As a follow up to our discussion","CHANTIX  Flex Quit RTE_As a follow up to our discussion","2017-06-30 23:12:08","2017-06-30 23:12:08",1,"a3RA0000000EB8yMAG"
6,"a3RA0000000EB91MAG",1001,1,5,"CHANTIX Dosing RTE_As a follow up to our discussion","CHANTIX Dosing RTE_As a follow up to our discussion","2017-06-30 23:12:08","2017-06-30 23:12:08",1,"a3RA0000000EB91MAG"
7,"a3RA0000000EB92MAG",1001,1,1564,"CHANTIX NPS RTE_Sorry i missed you","CHANTIX NPS RTE_Sorry i missed you","2017-06-30 23:12:08","2017-06-30 23:12:08",1,"a3RA0000000EB92MAG"
8,"a3RA0000000EB8tMAG",1001,1,1564,"CHANTIX NPS RTE_As a follow up to our discussion","CHANTIX NPS RTE_As a follow up to our discussion","2017-06-30 23:12:08","2017-06-30 23:12:08",1,"a3RA0000000EB8tMAG"
9,"a3RA0000000EB90MAG",1001,1,5,"CHANTIX Dosing RTE_Sorry i missed you","CHANTIX Dosing RTE_Sorry i missed you","2017-06-30 23:12:08","2017-06-30 23:12:08",1,"a3RA0000000EB90MAG"
10,"a3RA0000000e0u5MAA",1001,1,1564,"Chantix Side Effects RTE","Chantix Side Effects RTE","2017-06-30 23:12:08","2017-06-30 23:12:08",1,"a3RA0000000e486MAA"
11,"a3RA0000000EB99MAG",1001,1,1564,"CHANTIX Get Quit RTE_As a follow up to our discussion","CHANTIX Get Quit RTE_As a follow up to our discussion","2017-06-30 23:12:08","2017-06-30 23:12:08",1,"a3RA0000000EB99MAG"
12,"a3RA0000000EB94MAG",1001,1,1564,"CHANTIX  Flex Quit RTE_I wanted to provide you with some information","CHANTIX  Flex Quit RTE_I wanted to provide you with some information","2017-06-30 23:12:08","2017-06-30 23:12:08",1,"a3RA0000000EB94MAG"
13,"a3RA0000000EB98MAG",1001,1,1564,"CHANTIX MDD RTE_Sorry i missed you","CHANTIX MDD RTE_Sorry i missed you","2017-06-30 23:12:08","2017-06-30 23:12:08",1,"a3RA0000000EB98MAG"
14,"a3RA0000000EB96MAG",1001,1,1564,"CHANTIX Get Quit RTE_I wanted to provide you with some information","CHANTIX Get Quit RTE_I wanted to provide you with some information","2017-06-30 23:12:08","2017-06-30 23:12:08",1,"a3RA0000000EB96MAG"
15,"a3RA0000000EB9CMAW",1001,1,1564,"CHANTIX Retreatment RTE_As a follow up to our discussion","CHANTIX Retreatment RTE_As a follow up to our discussion","2017-06-30 23:12:08","2017-06-30 23:12:08",1,"a3RA0000000EB9CMAW"
16,"a3RA0000000EB95MAG",1001,1,1564,"CHANTIX  Flex Quit RTE_Sorry I missed you","CHANTIX  Flex Quit RTE_Sorry I missed you","2017-06-30 23:12:08","2017-06-30 23:12:08",1,"a3RA0000000EB95MAG"
17,"a3RA0000000EB97MAG",1001,1,1564,"CHANTIX MDD RTE_I wanted to provide you with","CHANTIX MDD RTE_I wanted to provide you with","2017-06-30 23:12:08","2017-06-30 23:12:08",1,"a3RA0000000EB97MAG"
18,"a3RA0000000EB9DMAW",1001,1,1564,"CHANTIX Retreatment RTE_Sorry i missed you","CHANTIX Retreatment RTE_Sorry i missed you","2017-06-30 23:12:08","2017-06-30 23:12:08",1,"a3RA0000000EB9DMAW"
19,"a3RA0000000EB9AMAW",1001,1,1564,"CHANTIX Get Quit RTE_Sorry I missed you","CHANTIX Get Quit RTE_Sorry I missed you","2017-06-30 23:12:08","2017-06-30 23:12:08",1,"a3RA0000000EB9AMAW"
20,"a3RA0000000EB9EMAW",1001,1,1564,"CHANTIX Retreatment RTE_I wanted to provide you with","CHANTIX Retreatment RTE_I wanted to provide you with","2017-06-30 23:12:08","2017-06-30 23:12:08",1,"a3RA0000000EB9EMAW"
21,"a3RA0000000EB9BMAW",1001,1,1564,"CHANTIX MDD RTE_As a follow up to our discussion","CHANTIX MDD RTE_As a follow up to our discussion","2017-06-30 23:12:08","2017-06-30 23:12:08",1,"a3RA0000000EB9BMAW"
22,"a3RA0000000HDRAMA4",1001,1,1564,"CHANTIX: Welcome Kit Order PfizerPro Link","Chantix: Welcome Kit & Savings Offer description with Link to Order","2017-06-30 23:12:08","2017-06-30 23:12:08",1,"a3RA0000000HDRAMA4"
23,"a3RA0000000HFLcMAO",1001,1,1564,"CHANTIX: Meaningful Use Information","Chantix: Meaningful Use and EHR Email","2017-06-30 23:12:08","2017-06-30 23:12:08",1,"a3RA0000000HFLcMAO"
24,"a3RA0000000HEKIMA4",1001,1,1564,"Chantix Digital Offering RTE- Welcome Kit","Chantix Digital Offering RTE - Welcome Kit","2017-06-30 23:12:08","2017-06-30 23:12:08",1,"a3RA0000000HEKIMA4"
25,"a3RA0000000HDR8MAO",1001,1,1564,"Chantix_Brand2_v4","Chantix Meaningful Use","2017-06-30 23:12:09","2017-06-30 23:12:09",1,"a3RA0000000HDR8MAO"
26,"a3RA0000000HDR9MAO",1001,1,1564,"Chantix_Brand1_v3","Chantix Flex Quit Date","2017-06-30 23:12:09","2017-06-30 23:12:09",1,"a3RA0000000HDR9MAO"
27,"a3RA0000000HDR6MAO",1001,1,1564,"CHANTIX: Pfizer Medical eDetail","Chantix: Pfizer Medical Discusses Flex Quit Date","2017-06-30 23:12:09","2017-06-30 23:12:09",1,"a3RA0000000HDR6MAO"
28,"a3RA0000000HFLbMAO",1001,1,1564,"CHANTIX: Flexible Quit Date Information","Chantix: Flexible Quit Information and Link to eDetail","2017-06-30 23:12:09","2017-06-30 23:12:09",1,"a3RA0000000HFLbMAO"
29,"a3RA0000000HEKJMA4",1001,1,1564,"Chantix Digital Offering RTE - Pfizer Medical Videos","Chantix Digital Offering RTE - Pfizer Medical Videos","2017-06-30 23:12:09","2017-06-30 23:12:09",1,"a3RA0000000HEKJMA4"
30,"a3RA0000000HGg8MAG",1001,1,1564,"CHX Digital Offering RTE - Pfizer Medical Videos","CHX Digital Offering RTE - Pfizer Medical Videos","2017-06-30 23:12:09","2017-06-30 23:12:09",1,"a3RA0000000HGg8MAG"
31,"a3RA0000000HEolMAG",1001,1,1564,"Chantix_Resource1_YOUTUBE","Chantix Digital Offering RTE - Patient Counseling/Education Videos","2017-06-30 23:12:09","2017-06-30 23:12:09",1,"a3RA0000000HEolMAG"
32,"a3RA0000000HGMMMA4",1001,1,1564,"Chantix Welcome Kit-SampleMD RTE","Chantix Welcome Kit/SampleMD RTE","2017-06-30 23:12:09","2017-06-30 23:12:09",1,"a3RA0000000HGMMMA4"
33,"a3RA0000000HGgJMAW",1001,1,1564,"CHX Digital Offering RTE - Meaningful Use","CHX Digital Offering RTE - Meaningful Use","2017-06-30 23:12:09","2017-06-30 23:12:09",1,"a3RA0000000HGgJMAW"
34,"a3RA0000000HGgIMAW",1001,1,1564,"CHX Digital Offering RTE - Welcome Kit","CHX Digital Offering RTE - Welcome Kit","2017-06-30 23:12:09","2017-06-30 23:12:09",1,"a3RA0000000HGgIMAW"
35,"a3RA0000000HGgAMAW",1001,1,1564,"CHX Digital Offering RTE - Flex Quit Date","CHX Digital Offering RTE - Flex Quit Date","2017-06-30 23:12:09","2017-06-30 23:12:09",1,"a3RA0000000HGgAMAW"
36,"a3RA0000000HGgKMAW",1001,1,1564,"CHX Digital Offering RTE - Retreatment","CHX Digital Offering RTE - Pfizer Medical Videos","2017-06-30 23:12:09","2017-06-30 23:12:09",1,"a3RA0000000HGgKMAW"
37,"a3RA0000000HGMLMA4",1001,1,1564,"Chantix Retreatment RTE","Chantix Retreatment RTE","2017-06-30 23:12:09","2017-06-30 23:12:09",1,"a3RA0000000Mg3JMAS"
38,"a3RA0000000HGgDMAW",1001,1,1564,"CHX Digital Offering RTE - Patient CounselingEducation","CHX Digital Offering RTE - Patient Counseling/Education","2017-06-30 23:12:09","2017-06-30 23:12:09",1,"a3RA0000000HGgDMAW"
39,"a3RA0000000HGMPMA4",1001,1,1564,"Chantix Welcome Kit/SampleMD RTE","Chantix Welcome Kit/SampleMD RTE","2017-06-30 23:12:09","2017-06-30 23:12:09",1,"a3RA0000000HGMPMA4"
40,"a3RA0000000HGMKMA4",1001,1,1564,"Chantix.com Overview RTE","Chantix.com Overview RTE","2017-06-30 23:12:09","2017-06-30 23:12:09",1,"a3RA0000000HGMKMA4"
41,"a3RA0000000HGg9MAG",1001,1,1564,"CHX Digital Offering RTE - Chantix.com","CHX Digital Offering RTE - Chantix.com","2017-06-30 23:12:09","2017-06-30 23:12:09",1,"a3RA0000000HGg9MAG"
42,"a3RA0000000HNzLMAW",1001,1,1564,"e-Cigarette RTE","e-Cigarette RTE","2017-06-30 23:12:09","2017-06-30 23:12:09",1,"a3RA0000000e47hMAA"
43,"a3RA0000000HO6iMAG",1001,1,1564,"Chantix MDD RTE","Chantix MDD RTE","2017-06-30 23:12:09","2017-06-30 23:12:09",1,"a3RA0000000Mg3MMAS"
44,"a3RA0000000HNz7MAG",1001,1,1564,"Retreatment RTE","Retreatment RTE","2017-06-30 23:12:09","2017-06-30 23:12:09",1,"a3RA0000000e47kMAA"
45,"a3RA0000000HNzBMAW",1001,1,1564,"Chantix Welcome Kit RTE","Chantix Welcome Kit RTE","2017-06-30 23:12:09","2017-06-30 23:12:09",1,"a3RA0000000e47jMAA"
46,"a3RA0000000HHeIMAW",1001,1,1564,"Reactive e-Cigarette email","Reactive e-Cigarette email","2017-06-30 23:12:09","2017-06-30 23:12:09",1,"a3RA0000000HHeIMAW"
47,"a3RA0000000MfthMAC",1001,1,5,"CHANTIX Dosing RTE","CHANTIX Dosing RTE","2017-06-30 23:12:09","2017-06-30 23:12:09",1,"a3RA0000000Mg3IMAS"
48,"a3RA0000000HNzMMAW",1001,1,1564,"Chantix.com RTE","Chantix.com RTE","2017-06-30 23:12:09","2017-06-30 23:12:09",1,"a3RA0000000e47iMAA"
49,"a3RA0000000HIbrMAG",1001,1,1564,"NPS Label Update RTE","NPS Label Update RTE","2017-06-30 23:12:09","2017-06-30 23:12:09",1,"a3RA0000000e47gMAA"
50,"a3RA0000000HNzGMAW",1001,1,1564,"Flex Quit RTE","Flex Quit RTE","2017-06-30 23:12:09","2017-06-30 23:12:09",1,"a3RA0000000e47fMAA"
51,"a3RA0000000HNz6MAG",1001,1,1564,"Meaningful Use RTE","Meaningful Use RTE","2017-06-30 23:12:09","2017-06-30 23:12:09",1,"a3RA0000000e47lMAA"
52,"a3RA0000000U0UHMA0",1001,1,1564,"Staying Quit RTE","Staying Quit RTE","2017-06-30 23:12:09","2017-06-30 23:12:09",1,"a3RA0000000U0UHMA0"
53,"a3RA0000000U0UCMA0",1001,1,1564,"Chantix MOA RTE","Chantix MOA RTE","2017-06-30 23:12:09","2017-06-30 23:12:09",1,"a3RA0000000U0UCMA0"
54,"a3RA0000000Mfu3MAC",1001,1,1564,"CHANTIX NPS RTE","CHANTIX NPS RTE","2017-06-30 23:12:09","2017-06-30 23:12:09",1,"a3RA0000000Mg3HMAS"
55,"a3RA0000000U3ywMAC",1001,1,1,"Gradual Quit Approach RTE_I wanted to provide you with","Gradual Quit Approach RTE_I wanted to provide you with","2017-06-30 23:12:09","2017-06-30 23:12:09",1,"a3RA0000000U3ywMAC"
56,"a3RA0000000U3yvMAC",1001,1,1,"Gradual Quit Approach RTE_As a follow up to our discussion","Gradual Quit Approach RTE_As a follow up to our discussion","2017-06-30 23:12:09","2017-06-30 23:12:09",1,"a3RA0000000U3yvMAC"
57,"a3RA0000000U0UDMA0",1001,1,1564,"Gradual Quit Approach RTE","Gradual Quit Approach RTE","2017-06-30 23:12:09","2017-06-30 23:12:09",1,"a3RA0000000U0UDMA0"
58,"a3RA0000000U3yxMAC",1001,1,1,"Gradual Quit Approach RTE_Sorry i missed you","Gradual Quit Approach RTE_Sorry i missed you","2017-06-30 23:12:09","2017-06-30 23:12:09",1,"a3RA0000000U3yxMAC"
59,"a3RA0000000U0UEMA0",1001,1,1564,"Get Quit RTE","Get Quit RTE","2017-06-30 23:12:09","2017-06-30 23:12:09",1,"a3RA0000000U0UEMA0"
60,"a3RA0000000Mg3LMAS",1001,1,1564,"CHANTIX  Flex Quit RTE","CHANTIX Flex Quit RTE","2017-06-30 23:12:09","2017-06-30 23:12:09",1,"a3RA0000000Mg3LMAS"
61,"a3RA0000000MfuCMAS",1001,1,1564,"CHANTIX Get Quit RTE","CHANTIX Get Quit RTE","2017-06-30 23:12:09","2017-06-30 23:12:09",1,"a3RA0000000Mg3KMAS"
62,"a3RA0000000U3zLMAS",1001,1,1,"Staying Quit RTE_Sorry I missed you","Staying Quit RTE_Sorry I missed you","2017-06-30 23:12:09","2017-06-30 23:12:09",1,"a3RA0000000U3zLMAS"
63,"a3RA0000000U3zIMAS",1001,1,1,"Chantix MOA RTE_I wanted to provide you with some information","Chantix MOA RTE_I wanted to provide you with some information","2017-06-30 23:12:09","2017-06-30 23:12:09",1,"a3RA0000000U3zIMAS"
64,"a3RA0000000U3zFMAS",1001,1,1,"Get Quit RTE_Sorry I missed you","Get Quit RTE_Sorry I missed you","2017-06-30 23:12:09","2017-06-30 23:12:09",1,"a3RA0000000U3zFMAS"
65,"a3RA0000000U3zMMAS",1001,1,1,"Staying Quit RTE_I wanted to provide you with some information","Staying Quit RTE_I wanted to provide you with some information","2017-06-30 23:12:09","2017-06-30 23:12:09",1,"a3RA0000000U3zMMAS"
66,"a3RA0000000U3zNMAS",1001,1,1,"Get Quit RTE_I wanted to provide you with some information","Get Quit RTE_I wanted to provide you with some information","2017-06-30 23:12:09","2017-06-30 23:12:09",1,"a3RA0000000U3zNMAS"
67,"a3RA0000000U3zJMAS",1001,1,1,"Get Quit RTE_As a follow up to our discussion","Get Quit RTE_As a follow up to our discussion","2017-06-30 23:12:09","2017-06-30 23:12:09",1,"a3RA0000000U3zJMAS"
68,"a3RA0000000U4BHMA0",1001,1,1,"EAGLES RTE","EAGLES RTE","2017-06-30 23:12:09","2017-06-30 23:12:09",1,"a3RA0000000U4BHMA0"
69,"a3RA0000000U3zHMAS",1001,1,1,"Chantix MOA RTE_As a follow up to our discussion","Chantix MOA RTE_As a follow up to our discussion","2017-06-30 23:12:09","2017-06-30 23:12:09",1,"a3RA0000000U3zHMAS"
70,"a3RA0000000U3zGMAS",1001,1,1,"Chantix MOA RTE_Sorry i missed you","Chantix MOA RTE_Sorry i missed you","2017-06-30 23:12:09","2017-06-30 23:12:09",1,"a3RA0000000U3zGMAS"
73,"a3RA0000000U4BIMA0",1001,1,1,"EAGLES RTE_I wanted to provide you with some information","EAGLES RTE_I wanted to provide you with some information","2017-06-30 23:12:09","2017-06-30 23:12:09",1,"a3RA0000000U4BIMA0"
74,"a3RA0000000U3zKMAS",1001,1,1,"Staying Quit RTE_As a follow up to our discussion","Staying Quit RTE_As a follow up to our discussion","2017-06-30 23:12:09","2017-06-30 23:12:09",1,"a3RA0000000U3zKMAS"
79,"a3RA0000000U4BKMA0",1001,1,1,"EAGLES RTE_Sorry I missed you","EAGLES RTE_Sorry I missed you","2017-06-30 23:12:09","2017-06-30 23:12:09",1,"a3RA0000000U4BKMA0"
80,"a3RA0000000U4BJMA0",1001,1,1,"EAGLES RTE_As a follow up to our discussion","EAGLES RTE_As a follow up to our discussion","2017-06-30 23:12:09","2017-06-30 23:12:09",1,"a3RA0000000U4BJMA0"
226,"a3RA0000000HFcmMAG",1003,1,1564,"LYRICA Diabetic Foot Exam Tips","LYRICA: 10 Minute Clinical Foot Exam Video","2017-06-30 23:12:11","2017-06-30 23:12:11",1,"a3RA0000000Mg36MAC"
228,"a3RA0000000EB9bMAG",1003,1,1564,"Why LYRICA- Resource on PFP.com","Why LYRICA- Resource on PFP.com","2017-06-30 23:12:12","2017-06-30 23:12:12",1,"a3RA0000000EB9bMAG"
229,"a3RA0000000HHeOMAW",1003,1,1564,"DPN Remote WebEx Speaker Presentation Invitation","DPN Remote WebEx Speaker Presentation Invitation","2017-06-30 23:12:12","2017-06-30 23:12:12",1,"a3RA0000000HHeOMAW"
232,"a3RA0000000e49aMAA",1003,1,1564,"FM MOA Video Rep-triggered e-mail","FM MOA Video Rep-triggered e-mail","2017-06-30 23:12:12","2017-06-30 23:12:12",1,"a3RA0000000U0VFMA0"
236,"a3RA0000000HR50MAG",1003,1,1564,"AAN Guideline Rep-triggered e-mail","AAN Guideline Rep-triggered e-mail","2017-06-30 23:12:12","2017-06-30 23:12:12",1,"a3RA00000006kGXMAY"
237,"a3RA0000000HR2PMAW",1003,1,1564,"LYRICA.com en Espanol Rep Triggered Email","LYRICA.com en Espanol Rep Triggered Email","2017-06-30 23:12:12","2017-06-30 23:12:12",1,"a3RA0000000Mg38MAC"
238,"a3RA0000000HyeAMAS",1003,1,1,"DPN Rosenstock with Cost and Coverage RTE","DPN Rosenstock with Cost and Coverage RTE","2017-06-30 23:12:12","2017-09-07 22:47:07",1,"a3RA00000001MxrMAE"
239,"a3RA0000000HFcqMAG",1003,1,1564,"LYRICA Four Indications Overview","LYRICA: Proven efficacy in the management of 4 painful conditions","2017-06-30 23:12:12","2017-06-30 23:12:12",1,"a3RA0000000HFcqMAG"
240,"a3RA0000000HFcrMAG",1003,1,9,"LYRICA FM Efficacy","LYRICA: Crofford and Crossover Study","2017-06-30 23:12:12","2017-06-30 23:12:12",1,"a3RA0000000HFcrMAG"
242,"a3RA0000000e0vBMAQ",1003,1,1564,"FM Management Rep-triggered e-mail","FM Management Rep-triggered e-mail","2017-06-30 23:12:12","2017-06-30 23:12:12",1,"a3RA0000000EB9dMAG"
243,"a3RA0000000HR2FMAW",1003,1,9,"Painful DPN Efficacy Rep-triggered e-mail","Painful DPN Efficacy Rep-triggered e-mail","2017-06-30 23:12:12","2017-06-30 23:12:12",1,"a3RA0000000e47JMAQ"
245,"a3RA0000000MfuMMAS",1003,1,7,"FM Efficacy plus Cost and Coverage RTE","FM Efficacy plus Cost and Coverage RTE","2017-06-30 23:12:12","2017-06-30 23:12:12",1,"a3RA0000000MfuMMAS"
246,"a3RA0000000e0v9MAA",1003,1,3,"Cost & Coverage Rep-triggered e-mail","Cost & Coverage Rep-triggered e-mail","2017-06-30 23:12:12","2017-06-30 23:12:12",1,"a3RA0000000e47LMAQ"
247,"a3RA0000000e0v8MAA",1003,1,1564,"4 Indications Rep-triggered e-mail","4 Indications Rep-triggered e-mail","2017-06-30 23:12:12","2017-06-30 23:12:12",1,"a3RA0000000Mg39MAC"
248,"a3RA0000000Hye8MAC",1003,1,1,"Cross Indications RTE","Cross Indications RTE","2017-06-30 23:12:12","2017-09-07 22:47:07",1,"a3RA00000001My6MAE"
249,"a3RA0000000Hye7MAC",1003,1,1,"DPN Rosenstock and SHIFT RTE","DPN Rosenstock and SHIFT RTE","2017-06-30 23:12:12","2017-09-07 22:47:07",1,"a3RA00000001MxmMAE"
250,"a3RA0000000MfuNMAS",1003,1,7,"pDPN Efficacy plus Cost and Coverage RTE","pDPN Efficacy plus Cost and Coverage RTE","2017-06-30 23:12:12","2017-06-30 23:12:12",1,"a3RA0000000MfuNMAS"
251,"a3RA0000000MgJvMAK",1003,1,3,"Cost and Coverage Rep-triggered e-mail","Cost and Coverage Rep-triggered e-mail","2017-06-30 23:12:12","2017-06-30 23:12:12",1,"a3RA0000000MgJvMAK"
252,"a3RA0000000MftgMAC",1003,1,1564,"PFP.com RTE ONLY for HCPs with less-than-favorable access","PFP.com RTE ONLY for HCPs with less-than-favorable access","2017-06-30 23:12:12","2017-06-30 23:12:12",1,"a3RA0000000MftgMAC"
253,"a3RA0000000HO9oMAG",1003,1,1564,"Lyrica 4 Indications","Lyrica 4 Indications","2017-06-30 23:12:12","2017-06-30 23:12:12",1,"a3RA0000000HO9oMAG"
254,"a3RA0000000HHeNMAW",1003,1,3,"Lyrica Cost and Coverage","Lyrica Cost and Coverage","2017-06-30 23:12:12","2017-06-30 23:12:12",1,"a3RA0000000HO9tMAG"
255,"a3RA0000000U0VLMA0",1003,1,1,"DPN Efficacy and Shift Rep-triggered e-mail","DPN Efficacy and Shift Rep-triggered e-mail","2017-06-30 23:12:12","2017-06-30 23:12:12",1,"a3RA0000000U0VLMA0"
256,"a3RA0000000HO7sMAG",1003,1,1564,"Step On Up™ Rep Triggered Email","Step On Up™ Rep Triggered Email","2017-06-30 23:12:12","2017-06-30 23:12:12",1,"a3RA0000000HO7sMAG"
257,"a3RA0000000HO9jMAG",1003,1,1564,"Lyrica FM Management","Lyrica FM Management","2017-06-30 23:12:12","2017-06-30 23:12:12",1,"a3RA0000000HO9jMAG"
258,"a3RA0000000MgJtMAK",1003,1,5,"pDPN dosing reminder RTE","pDPN dosing reminder RTE","2017-06-30 23:12:12","2017-06-30 23:12:12",1,"a3RA0000000MgJtMAK"
259,"a3RA0000000U0V0MAK",1003,1,1,"Cost and Coverage RTE","Cost and Coverage RTE","2017-06-30 23:12:12","2017-06-30 23:12:12",1,"a3RA0000000U0V0MAK"
260,"a3RA0000000Hye9MAC",1003,1,1,"FM Crofford and Crossover RTE","FM Crofford and Crossover RTE","2017-06-30 23:12:12","2017-09-07 22:47:08",1,"a3RA00000001My1MAE"
261,"a3RA0000000MfuOMAS",1003,1,9,"FM Efficacy and Function Rep-triggered e-mail","FM Efficacy and Function Rep-triggered e-mail","2017-06-30 23:12:12","2017-06-30 23:12:12",1,"a3RA0000000MfuOMAS"
262,"a3RA0000000U0VPMA0",1003,1,1,"LYRICA FM Updated Sustained and Improved Function RTE","LYRICA FM Updated Sustained and Improved Function RTE","2017-06-30 23:12:12","2017-06-30 23:12:12",1,"a3RA0000000U0VPMA0"
263,"a3RA0000000MftcMAC",1003,1,9,"FM Efficacy and Comorbid Depression Rep-triggered e-mail","FM Efficacy and Comorbid Depression Rep-triggered e-mail","2017-06-30 23:12:12","2017-06-30 23:12:12",1,"a3RA0000000MftcMAC"
265,"a3RA0000000HyeCMAS",1003,1,1,"FM Arnold with Cost and Coverage RTE","FM Arnold with Cost and Coverage RTE","2017-06-30 23:12:12","2017-09-07 22:47:07",1,"a3RA00000001MxhMAE"
268,"a3RA0000000U0TYMA0",1003,1,1564,"LYRICA FM Powerful and Improved Function RTE","LYRICA FM Powerful and Improved Function RTE","2017-06-30 23:12:12","2017-06-30 23:12:12",1,"a3RA0000000U0TYMA0"
269,"a3RA0000000HyeBMAS",1003,1,1,"FM Crofford RTE","FM Crofford RTE","2017-06-30 23:12:12","2017-09-07 22:47:07",1,"a3RA00000001MxwMAE"
274,"a3RA0000000MgJuMAK",1003,1,5,"FM Dosing Reminder RTE","FM Dosing Reminder RTE","2017-06-30 23:12:12","2017-06-30 23:12:12",1,"a3RA0000000MgJuMAK"
275,"a3RA0000000U0TOMA0",1003,1,1564,"4 Painful Indications Rep-triggered e-mail","4 Painful Indications Rep-triggered e-mail","2017-06-30 23:12:12","2017-06-30 23:12:12",1,"a3RA0000000U0TTMA0"
276,"a3RA0000000U0TdMAK",1003,1,9,"Lyrica pDPN 50 percent or more Efficacy Rep-triggered e-mail","Lyrica pDPN 50 percent or more Efficacy Rep-triggered e-mail","2017-06-30 23:12:12","2017-06-30 23:12:12",1,"a3RA0000000U0TdMAK"
356,"a00A000000nR9AjIAK",1001,2,4,"DOSING SORRY I MISSED YOU LETTER","DOSING SORRY I MISSED YOU","2017-06-30 23:12:13","2017-07-08 04:22:19",1,"a00A000000nR9AjIAK"
358,"a00A000000nR9BBIA0",1001,2,4,"DOSING LETTER","DOSING","2017-06-30 23:12:13","2017-07-08 04:22:19",1,"a00A000000nR9BBIA0"
361,"a00A000000nR9AkIAK",1001,2,1,"DOSING FOLLOW-UP LETTER","DOSING FOLLOW-UP","2017-06-30 23:12:13","2017-06-30 23:12:13",1,"a00A000000nR9AkIAK"
362,"a00A000000kDHwWIAW",1003,2,4,"DPN DOSING AND TITRATION LETTER","DPN DOSING AND TITRATION","2017-06-30 23:12:13","2017-07-08 04:22:19",1,"a00A000000kDHwWIAW"
363,"a00A000000nQyj9IAC",1003,2,1,"DPN EFFICACY POWERFUL RAPID LETTER","DPN EFFICACY POWERFUL RAPID","2017-06-30 23:12:13","2017-06-30 23:12:13",1,"a00A000000nQyj9IAC"
364,"a00A000000nR9AmIAK",1001,2,1,"EAGLES SORRY I MISSED YOU LETTER","EAGLES SORRY I MISSED YOU","2017-06-30 23:12:13","2017-06-30 23:12:13",1,"a00A000000nR9AmIAK"
366,"a00A000000nQyjEIAS",1003,2,1,"DPN EFFICACY_POWERFUL_RAPID LETTER","DPN EFFICACY_POWERFUL_RAPID","2017-06-30 23:12:13","2017-06-30 23:12:13",1,"a00A000000nQyjEIAS"
367,"a00A000000kDHx0IAG",1003,2,1567,"DPN MODERATE TO SEVERE LETTER","DPN MODERATE TO SEVERE","2017-06-30 23:12:13","2017-07-08 04:22:19",1,"a00A000000kDHx0IAG"
368,"a00A000000kDHx4IAG",1003,2,1567,"DPN FACE TO FACE LETTER","DPN FACE TO FACE","2017-06-30 23:12:13","2017-07-08 04:22:19",1,"a00A000000kDHx4IAG"
369,"a00A000000nR9AxIAK",1001,2,1,"EAGLES LETTER","EAGLES","2017-06-30 23:12:13","2017-07-08 04:22:19",1,"a00A000000nR9AxIAK"
370,"a00A000000nR9AlIAK",1001,2,1,"EAGLES FOLLOW-UP LETTER","EAGLES FOLLOW-UP","2017-06-30 23:12:13","2017-06-30 23:12:13",1,"a00A000000nR9AlIAK"
379,"a00A000000nR9AoIAK",1001,2,1,"GRADUAL QUIT APPROACH FOLLOW-UP LETTER","GRADUAL QUIT APPROACH FOLLOW-UP","2017-06-30 23:12:13","2017-06-30 23:12:13",1,"a00A000000nR9AoIAK"
381,"a00A000000kDHwdIAG",1003,2,1568,"FM CROFFORD AND CROSSOVER STUDY LETTER","FM CROFFORD AND CROSSOVER STUDY","2017-06-30 23:12:13","2017-07-07 21:13:47",1,"a00A000000hHtHeIAK"
382,"a00A000000kDHwVIAW",1003,2,4,"FM DOSING AND TITRATION LETTER","FM DOSING AND TITRATION","2017-06-30 23:12:13","2017-07-08 04:22:19",1,"a00A000000kDHwVIAW"
384,"a00A000000nR9B8IAK",1001,2,1567,"GET QUIT LETTER","GET QUIT","2017-06-30 23:12:13","2017-07-08 04:22:19",1,"a00A000000nR9B8IAK"
386,"a00A000000nR9B2IAK",1001,2,1,"GRADUAL QUIT APPROACH SORRY I MISSED YOU LETTER","GRADUAL QUIT APPROACH SORRY I MISSED YOU","2017-06-30 23:12:13","2017-06-30 23:12:13",1,"a00A000000nR9B2IAK"
387,"a00A000000nR9AvIAK",1001,2,1567,"MDD SORRY I MISSED YOU LETTER","MDD SORRY I MISSED YOU","2017-06-30 23:12:14","2017-07-08 04:22:19",1,"a00A000000nR9AvIAK"
389,"a00A000000nR9AwIAK",1001,2,1,"GET QUIT FOLLOW-UP LETTER","GET QUIT FOLLOW-UP","2017-06-30 23:12:14","2017-06-30 23:12:14",1,"a00A000000nR9AwIAK"
390,"a00A000000nR9B6IAK",1001,2,1567,"GRADUAL QUIT APPROACH LETTER","GRADUAL QUIT APPROACH","2017-06-30 23:12:14","2017-07-08 04:22:19",1,"a00A000000nR9B6IAK"
394,"a00A000000nR9B4IAK",1001,2,1,"MOA FOLLOW-UP LETTER","MOA FOLLOW-UP","2017-06-30 23:12:14","2017-06-30 23:12:14",1,"a00A000000nR9B4IAK"
396,"a00A000000nR9AqIAK",1001,2,1,"MDD FOLLOW-UP LETTER","MDD FOLLOW-UP","2017-06-30 23:12:14","2017-06-30 23:12:14",1,"a00A000000nR9AqIAK"
398,"a00A000000nR9B9IAK",1001,2,1567,"GET QUIT SORRY I MISSED YOU LETTER","GET QUIT SORRY I MISSED YOU","2017-06-30 23:12:14","2017-07-08 04:22:19",1,"a00A000000nR9B9IAK"
399,"a00A000000nR9AtIAK",1001,2,1567,"MOA SORRY I MISSED YOU LETTER","MOA SORRY I MISSED YOU","2017-06-30 23:12:14","2017-07-08 04:22:19",1,"a00A000000nR9AtIAK"
400,"a00A000000mhEYkIAM",1003,2,8,"LYRICA COST AND COVERAGE IREP LETTER","LYRICA COST AND COVERAGE IREP","2017-06-30 23:12:14","2017-07-08 04:22:19",1,"a00A000000mhEYkIAM"
401,"a00A000000nR9AsIAK",1001,2,1567,"MOA LETTER","MOA","2017-06-30 23:12:14","2017-07-08 04:22:19",1,"a00A000000nR9AsIAK"
411,"a00A000000nR9B1IAK",1001,2,1567,"MDD LETTER","MDD","2017-06-30 23:12:14","2017-07-08 04:22:19",1,"a00A000000nR9B1IAK"
413,"a00A000000nR9AzIAK",1001,2,1,"RETREATMENT FOLLOW-UP LETTER","RETREATMENT FOLLOW-UP","2017-06-30 23:12:14","2017-06-30 23:12:14",1,"a00A000000nR9AzIAK"
418,"a00A000000nR9AyIAK",1001,2,1567,"RETREATMENT LETTER","RETREATMENT","2017-06-30 23:12:14","2017-07-08 04:22:20",1,"a00A000000nR9AyIAK"
423,"a00A000000nR9BCIA0",1001,2,1567,"STAYING QUIT SORRY I MISSED YOU LETTER","STAYING QUIT SORRY I MISSED YOU","2017-06-30 23:12:14","2017-07-08 04:22:20",1,"a00A000000nR9BCIA0"
424,"a00A000000nR9B0IAK",1001,2,1567,"STAYING QUIT LETTER","STAYING QUIT","2017-06-30 23:12:14","2017-07-08 04:22:20",1,"a00A000000nR9B0IAK"
426,"a00A000000nR9BAIA0",1001,2,1567,"RETREATMENT SORRY I MISSED YOU LETTER","RETREATMENT SORRY I MISSED YOU","2017-06-30 23:12:14","2017-07-08 04:22:19",1,"a00A000000nR9BAIA0"
431,"a00A000000nR9AiIAK",1001,2,1,"STAYING QUIT FOLLOW-UP LETTER","STAYING QUIT FOLLOW-UP","2017-06-30 23:12:14","2017-06-30 23:12:14",1,"a00A000000nR9AiIAK"
462,"a00A00000095WKuIAM",1001,2,1,"CV SAFETY LETTER","CV SAFETY","2017-07-07 21:13:46","2017-07-07 21:13:46",1,"a00A00000095WKuIAM"
469,"a00A00000096m8fIAA",1003,2,1,"DOSING LETTER","DOSING","2017-07-07 21:13:46","2017-07-07 21:13:46",1,"a00A00000096m8fIAA"
471,"a00A000000kCULhIAO",1001,2,1,"DOSING FOLLOWUP LETTER","DOSING FOLLOWUP","2017-07-07 21:13:46","2017-07-07 21:13:46",1,"a00A000000kCULhIAO"
472,"a00A000000kDHwYIAW",1001,2,4,"DOSING FOLLOW UP LETTER","DOSING FOLLOW UP","2017-07-07 21:13:46","2017-07-07 21:13:46",1,"a00A000000kDHwYIAW"
478,"a00A000000bzpK6IAI",1003,2,1,"DOSING SAMPLE INELIGIBLE LETTER","DOSING SAMPLE INELIGIBLE","2017-07-07 21:13:46","2017-07-07 21:13:46",1,"a00A000000bzpK6IAI"
479,"a00A00000095lZbIAI",1003,2,1,"DPN DOSING LETTER LETTER","DPN DOSING LETTER","2017-07-07 21:13:46","2017-07-07 21:13:46",1,"a00A00000095lZbIAI"
480,"a00A000000bzpK0IAI",1003,2,1,"DOSING SAMPLE ELIGIBLE LETTER","DOSING SAMPLE ELIGIBLE","2017-07-07 21:13:46","2017-07-07 21:13:46",1,"a00A000000bzpK0IAI"
481,"a00A00000095lZXIAY",1003,2,1,"DPN EFFICACY LETTER LETTER","DPN EFFICACY LETTER","2017-07-07 21:13:46","2017-07-07 21:13:46",1,"a00A00000095lZXIAY"
482,"a00A000000lc2MgIAI",1003,2,1,"DPN EFFICACY SHIFT MOA LETTER","DPN EFFICACY SHIFT MOA","2017-07-07 21:13:46","2017-07-07 21:13:46",1,"a00A000000lc2MgIAI"
483,"a00A000000ldYPTIA2",1003,2,6,"DPN EFFICACY MOA IREP COPAY LETTER LETTER","DPN EFFICACY MOA IREP COPAY LETTER","2017-07-07 21:13:46","2017-07-07 21:13:46",1,"a00A000000ldYPTIA2"
484,"a00A000000hGXRLIA4",1003,2,1,"DPN EFFICACY LETTER","DPN EFFICACY","2017-07-07 21:13:46","2017-07-07 21:13:46",1,"a00A000000hGXRLIA4"
485,"a00A000000VKzgJIAT",1003,2,1,"DPN SPC RAPID/48 HOUR LETTER","DPN SPC RAPID/48 HOUR","2017-07-07 21:13:46","2017-07-07 21:13:46",1,"a00A000000anPKdIAM"
486,"a00A000000bzpK7IAI",1003,2,1,"DPN PCP HBA1C/BLOOD PRESSURE SAMPLE ELIGIBLE LETTER","DPN PCP HBA1C/BLOOD PRESSURE SAMPLE ELIGIBLE","2017-07-07 21:13:47","2017-07-07 21:13:47",1,"a00A000000bzpK7IAI"
487,"a00A000000bzpKcIAI",1003,2,1,"DPN PCP HBA1C/BLOOD PRESSURE SAMPLE INELIGIBLE LETTER","DPN PCP HBA1C/BLOOD PRESSURE SAMPLE INELIGIBLE","2017-07-07 21:13:47","2017-07-07 21:13:47",1,"a00A000000bzpKcIAI"
488,"a00A000000VKzgHIAT",1003,2,1,"DPN PCP ROSENSTOCK/PGIC LETTER","DPN PCP ROSENSTOCK/PGIC","2017-07-07 21:13:47","2017-07-07 21:13:47",1,"a00A000000anPJhIAM"
490,"a00A000000bzpKoIAI",1003,2,1,"DPN PCP ROSENSTOCK/PGIC SAMPLE INELIGIBLE LETTER","DPN PCP ROSENSTOCK/PGIC SAMPLE INELIGIBLE","2017-07-07 21:13:47","2017-07-07 21:13:47",1,"a00A000000bzpKoIAI"
491,"a00A000000ldYPPIA2",1003,2,6,"DPN EFFICACY SHIFT IREP LETTER LETTER","DPN EFFICACY SHIFT IREP LETTER","2017-07-07 21:13:47","2017-07-07 21:13:47",1,"a00A000000ldYPPIA2"
492,"a00A000000VKzgKIAT",1003,2,1,"DPN PCP HBA1C/BLOOD PRESSURE LETTER","DPN PCP HBA1C/BLOOD PRESSURE","2017-07-07 21:13:47","2017-07-07 21:13:47",1,"a00A000000anPJgIAM"
493,"a00A000000mi67iIAA",1001,2,1,"EAGLES (FOLLOW-UP) LETTER","EAGLES (FOLLOW-UP)","2017-07-07 21:13:47","2017-07-07 21:13:47",1,"a00A000000mi67iIAA"
494,"a00A000000ld25rIAA",1003,2,1568,"DPN HBA1C BLOOD PRESSURE LETTER LETTER","DPN HBA1C BLOOD PRESSURE LETTER","2017-07-07 21:13:47","2017-07-07 21:13:47",1,"a00A000000ld25rIAA"
495,"a00A000000mi67gIAA",1001,2,1,"EAGLES (SORRY I MISSED YOU) LETTER","EAGLES (SORRY I MISSED YOU)","2017-07-07 21:13:47","2017-07-07 21:13:47",1,"a00A000000mi67gIAA"
497,"a00A000000bzpKEIAY",1003,2,1,"DPN SPC RAPID/48 HOUR SAMPLE ELIGIBLE LETTER","DPN SPC RAPID/48 HOUR SAMPLE ELIGIBLE","2017-07-07 21:13:47","2017-07-07 21:13:47",1,"a00A000000bzpKEIAY"
498,"a00A000000bzpKBIAY",1003,2,1,"DPN PCP ROSENSTOCK/PGIC SAMPLE ELIGIBLE LETTER","DPN PCP ROSENSTOCK/PGIC SAMPLE ELIGIBLE","2017-07-07 21:13:47","2017-07-07 21:13:47",1,"a00A000000bzpKBIAY"
502,"a00A000000bzpKHIAY",1003,2,1,"DPN SPC RAPID/48 HOUR SAMPLE INELIGIBLE LETTER","DPN SPC RAPID/48 HOUR SAMPLE INELIGIBLE","2017-07-07 21:13:47","2017-07-07 21:13:47",1,"a00A000000bzpKHIAY"
503,"a00A0000000quLfIAI",1003,2,1,"EPI BEYDOUN (REVISED) LETTER","EPI BEYDOUN (REVISED)","2017-07-07 21:13:47","2017-07-07 21:13:47",1,"a00A0000000quLfIAI"
509,"a00A0000000quLbIAI",1003,2,1,"EMERGING SCIENCE LETTER","EMERGING SCIENCE","2017-07-07 21:13:47","2017-07-07 21:13:47",1,"a00A0000000quLbIAI"
510,"a00A0000006C8R5IAK",1001,2,1,"EFFICACY (SUBANALYSES, CVD & COPD) LETTER","EFFICACY (SUBANALYSES, CVD & COPD)","2017-07-07 21:13:47","2017-07-07 21:13:47",1,"a00A0000006C8R5IAK"
514,"a00A0000000quLeIAI",1003,2,1,"FIBROMYALGIA REINFORCEMENT LETTER","FIBROMYALGIA REINFORCEMENT","2017-07-07 21:13:47","2017-07-07 21:13:47",1,"a00A0000000quLeIAI"
516,"a00A000000kDRLmIAO",1001,2,1,"FLEX QUIT SORRY I MISSED YOU LETTER","FLEX QUIT SORRY I MISSED YOU","2017-07-07 21:13:47","2017-07-07 21:13:47",1,"a00A000000kDRLmIAO"
518,"a00A0000003AP38IAG",1001,2,1,"EFFICACY LETTER","EFFICACY","2017-07-07 21:13:47","2017-07-07 21:13:47",1,"a00A0000003AP38IAG"
519,"a00A0000000quLgIAI",1003,2,1,"EPI DOSING (REVISED) LETTER","EPI DOSING (REVISED)","2017-07-07 21:13:47","2017-07-07 21:13:47",1,"a00A0000000quLgIAI"
521,"a00A000000kDRLpIAO",1001,2,1,"FLEX QUIT FOLLOW UP LETTER","FLEX QUIT FOLLOW UP","2017-07-07 21:13:47","2017-07-07 21:13:47",1,"a00A000000kDRLpIAO"
522,"a00A00000095lZnIAI",1003,2,1,"FM EFFICACY LETTER LETTER","FM EFFICACY LETTER","2017-07-07 21:13:47","2017-07-07 21:13:47",1,"a00A00000095lZnIAI"
525,"a00A00000097BxnIAE",1001,2,1,"FLEX QUIT LETTER","FLEX QUIT","2017-07-07 21:13:47","2017-07-07 21:13:47",1,"a00A00000097BxnIAE"
526,"a00A00000096m8gIAA",1003,2,1,"FM: EFFICACY AND DDI LETTER","FM: EFFICACY AND DDI","2017-07-07 21:13:47","2017-07-07 21:13:47",1,"a00A00000096m8gIAA"
527,"a00A000000bzpK8IAI",1003,2,1,"FM CROFFORD/FM CROSSOVER STUDY SAMPLE INELIGIBLE LETTER","FM CROFFORD/FM CROSSOVER STUDY SAMPLE INELIGIBLE","2017-07-07 21:13:47","2017-07-07 21:13:47",1,"a00A000000bzpK8IAI"
530,"a00A000000VKzgIIAT",1003,2,1,"FM CROFFORD/FM CROSSOVER STUDY LETTER","FM CROFFORD/FM CROSSOVER STUDY","2017-07-07 21:13:47","2017-07-07 21:13:47",1,"a00A000000anPKcIAM"
531,"a00A0000000quLdIAI",1003,2,1,"FIBRO PAIN PATHWAYS LETTER","FIBRO PAIN PATHWAYS","2017-07-07 21:13:47","2017-07-07 21:13:47",1,"a00A0000000quLdIAI"
532,"a00A000000bzpKgIAI",1003,2,1,"FM: RHEUMATOLOGIST SAMPLE ELIGIBLE LETTER","FM: RHEUMATOLOGIST SAMPLE ELIGIBLE","2017-07-07 21:13:47","2017-07-07 21:13:47",1,"a00A000000bzpKgIAI"
533,"a00A000000bzpKbIAI",1003,2,1,"FM CROFFORD/FM CROSSOVER STUDY SAMPLE ELIGIBLE LETTER","FM CROFFORD/FM CROSSOVER STUDY SAMPLE ELIGIBLE","2017-07-07 21:13:47","2017-07-07 21:13:47",1,"a00A000000bzpKbIAI"
534,"a00A000000hGXRMIA4",1003,2,1,"FM EFFICACY LETTER","FM EFFICACY","2017-07-07 21:13:47","2017-07-07 21:13:47",1,"a00A000000hGXRMIA4"
535,"a00A000000bzpK1IAI",1003,2,1,"FM CROFFORD/FIQ SAMPLE INELIGIBLE LETTER","FM CROFFORD/FIQ SAMPLE INELIGIBLE","2017-07-07 21:13:47","2017-07-07 21:13:47",1,"a00A000000bzpK1IAI"
536,"a00A00000095lZYIAY",1003,2,1,"FM PAIN MANAGEMENT LETTER LETTER","FM PAIN MANAGEMENT LETTER","2017-07-07 21:13:47","2017-07-07 21:13:47",1,"a00A00000095lZYIAY"
537,"a00A000000VKzgFIAT",1003,2,1,"FM CROFFORD/FIQ LETTER","FM CROFFORD/FIQ","2017-07-07 21:13:47","2017-07-07 21:13:47",1,"a00A000000anPJiIAM"
538,"a00A000000bzpKeIAI",1003,2,1,"FM CROFFORD/FIQ SAMPLE ELIGIBLE LETTER","FM CROFFORD/FIQ SAMPLE ELIGIBLE","2017-07-07 21:13:47","2017-07-07 21:13:47",1,"a00A000000bzpKeIAI"
539,"a00A000000bzpK9IAI",1003,2,1,"FM PATIENT PROFILE/CROFFORD/FM CROSSOVER STUDY SAMPLE ELIGIBLE LETTER","FM PATIENT PROFILE/CROFFORD/FM CROSSOVER STUDY SAMPLE ELIGIBLE","2017-07-07 21:13:47","2017-07-07 21:13:47",1,"a00A000000bzpK9IAI"
540,"a00A00000095lZoIAI",1003,2,1,"FM RHEUMATOLOGY LETTER LETTER","FM RHEUMATOLOGY LETTER","2017-07-07 21:13:47","2017-07-07 21:13:47",1,"a00A00000095lZoIAI"
541,"a00A00000098UhzIAE",1003,2,1,"FLORIDA CS LEGISLATION LETTER","FLORIDA CS LEGISLATION","2017-07-07 21:13:47","2017-07-07 21:13:47",1,"a00A00000098UhzIAE"
542,"a00A000000bzpKIIAY",1003,2,1,"FM: NEUROLOGIST SAMPLE INELIGIBLE LETTER","FM: NEUROLOGIST SAMPLE INELIGIBLE","2017-07-07 21:13:47","2017-07-07 21:13:47",1,"a00A000000bzpKIIAY"
543,"a00A000000VKzgAIAT",1003,2,1,"FM PATIENT PROFILE/CROFFORD/FM CROSSOVER STUDY LETTER","FM PATIENT PROFILE/CROFFORD/FM CROSSOVER STUDY","2017-07-07 21:13:47","2017-07-07 21:13:47",1,"a00A000000anPKbIAM"
544,"a00A00000095lZMIAY",1003,2,1,"FM NEUROLOGY LETTER LETTER","FM NEUROLOGY LETTER","2017-07-07 21:13:47","2017-07-07 21:13:47",1,"a00A00000095lZMIAY"
545,"a00A000000lc2McIAI",1003,2,1,"FM EFFICACY MOA LETTER","FM EFFICACY MOA","2017-07-07 21:13:47","2017-07-07 21:13:47",1,"a00A000000lc2McIAI"
546,"a00A000000iNqwpIAC",1003,2,1,"FM FACE TO FACE LETTER","FM FACE TO FACE","2017-07-07 21:13:47","2017-07-07 21:13:47",1,"a00A000000iNqwpIAC"
547,"a00A000000lc9VOIAY",1001,2,1567,"GRADUAL QUIT APPROACH (FOLLOW-UP) LETTER","GRADUAL QUIT APPROACH (FOLLOW-UP)","2017-07-07 21:13:47","2017-07-07 21:13:47",1,"a00A000000lc9VOIAY"
548,"a00A000000bzpKmIAI",1003,2,1,"FM: PAIN MANAGEMENT SAMPLE ELIGIBLE LETTER","FM: PAIN MANAGEMENT SAMPLE ELIGIBLE","2017-07-07 21:13:47","2017-07-07 21:13:47",1,"a00A000000bzpKmIAI"
549,"a00A00000096mC8IAI",1003,2,1,"FM: RHEUMATOLOGIST LETTER","FM: RHEUMATOLOGIST","2017-07-07 21:13:47","2017-07-07 21:13:47",1,"a00A00000096mC8IAI"
550,"a00A000000bzpKZIAY",1003,2,1,"FM: NEUROLOGIST SAMPLE ELIGIBLE LETTER","FM: NEUROLOGIST SAMPLE ELIGIBLE","2017-07-07 21:13:47","2017-07-07 21:13:47",1,"a00A000000bzpKZIAY"
551,"a00A000000ldYPQIA2",1003,2,6,"FM EFFICACY MOA IREP COPAY LETTER LETTER","FM EFFICACY MOA IREP COPAY LETTER","2017-07-07 21:13:47","2017-07-07 21:13:47",1,"a00A000000ldYPQIA2"
552,"a00A00000096m8eIAA",1003,2,1,"FM: NEUROLOGIST LETTER","FM: NEUROLOGIST","2017-07-07 21:13:47","2017-07-07 21:13:47",1,"a00A00000096m8eIAA"
553,"a00A000000kDHwuIAG",1001,2,1,"GET QUIT FOLLOW UP LETTER","GET QUIT FOLLOW UP","2017-07-07 21:13:47","2017-07-07 21:13:47",1,"a00A000000kDHwuIAG"
554,"a00A000000bzpKaIAI",1003,2,1,"FM: EFFICACY AND DDI SAMPLE INELIGIBLE LETTER","FM: EFFICACY AND DDI SAMPLE INELIGIBLE","2017-07-07 21:13:47","2017-07-07 21:13:47",1,"a00A000000bzpKaIAI"
555,"a00A00000096mBuIAI",1003,2,1,"FM: PAIN MANAGEMENT LETTER","FM: PAIN MANAGEMENT","2017-07-07 21:13:47","2017-07-07 21:13:47",1,"a00A00000096mBuIAI"
557,"a00A000000kCULtIAO",1001,2,1,"GET QUIT (SORRY I MISSED YOU) LETTER","GET QUIT (SORRY I MISSED YOU)","2017-07-07 21:13:47","2017-07-07 21:13:47",1,"a00A000000kCULtIAO"
558,"a00A0000003AP32IAG",1001,2,1,"GETQUIT LETTER","GETQUIT","2017-07-07 21:13:47","2017-07-07 21:13:47",1,"a00A0000003AP32IAG"
559,"a00A000000bzpKTIAY",1003,2,1,"FM: EFFICACY AND DDI SAMPLE ELIGIBLE LETTER","FM: EFFICACY AND DDI SAMPLE ELIGIBLE","2017-07-07 21:13:47","2017-07-07 21:13:47",1,"a00A000000bzpKTIAY"
560,"a00A000000kCULiIAO",1001,2,1,"GET QUIT (FOLLOW-UP) LETTER","GET QUIT (FOLLOW-UP)","2017-07-07 21:13:47","2017-07-07 21:13:47",1,"a00A000000kCULiIAO"
563,"a00A000000bzpKMIAY",1003,2,1,"FM: RHEUMATOLOGIST SAMPLE INELIGIBLE LETTER","FM: RHEUMATOLOGIST SAMPLE INELIGIBLE","2017-07-07 21:13:47","2017-07-07 21:13:47",1,"a00A000000bzpKMIAY"
564,"a00A000000kDHwvIAG",1001,2,1567,"MDD FOLLOW UP LETTER","MDD FOLLOW UP","2017-07-07 21:13:47","2017-07-07 21:13:47",1,"a00A000000kDHwvIAG"
567,"a00A000000ldYPOIA2",1003,2,1567,"LEADERSHIP IREP LETTER LETTER","LEADERSHIP IREP LETTER","2017-07-07 21:13:47","2017-07-07 21:13:47",1,"a00A000000ldYPOIA2"
568,"a00A000000lc9VSIAY",1001,2,1567,"GRADUAL QUIT APPROACH (SORRY I MISSED YOU) LETTER","GRADUAL QUIT APPROACH (SORRY I MISSED YOU)","2017-07-07 21:13:48","2017-07-07 21:13:48",1,"a00A000000lc9VSIAY"
572,"a00A000000bzpJzIAI",1003,2,1,"LYRICA DOSING SAMPLE ELIGIBLE LETTER","LYRICA DOSING SAMPLE ELIGIBLE","2017-07-07 21:13:48","2017-07-07 21:13:48",1,"a00A000000bzpJzIAI"
573,"a00A000000VKzgBIAT",1003,2,1,"LYRICA DOSING LETTER","LYRICA DOSING","2017-07-07 21:13:48","2017-07-07 21:13:48",1,"a00A000000anPKeIAM"
574,"a00A000000bzpKLIAY",1003,2,1,"FM PATIENT PROFILE/CROFFORD/FM CROSSOVER STUDY SAMPLE INELIGIBLE LETTER","FM PATIENT PROFILE/CROFFORD/FM CROSSOVER STUDY SAMPLE INELIGIBLE","2017-07-07 21:13:48","2017-07-07 21:13:48",1,"a00A000000bzpKLIAY"
575,"a00A000000bzpKhIAI",1003,2,1,"LYRICA DOSING SAMPLE INELIGIBLE LETTER","LYRICA DOSING SAMPLE INELIGIBLE","2017-07-07 21:13:48","2017-07-07 21:13:48",1,"a00A000000bzpKhIAI"
577,"a00A00000097BxxIAE",1001,2,1,"MEANINGFUL USE LETTER","MEANINGFUL USE","2017-07-07 21:13:48","2017-07-07 21:13:48",1,"a00A00000097BxxIAE"
578,"a00A000000ldNj0IAE",1003,2,1567,"LYRICA COPAY LETTER LETTER","LYRICA COPAY LETTER","2017-07-07 21:13:48","2017-07-07 21:13:48",1,"a00A000000ldNj0IAE"
579,"a00A000000kCULvIAO",1001,2,1,"MDD (SORRY I MISSED YOU) LETTER","MDD (SORRY I MISSED YOU)","2017-07-07 21:13:48","2017-07-07 21:13:48",1,"a00A000000kCULvIAO"
580,"a00A000000gWwiqIAC",1001,2,1,"MDD STUDY IN CHANTIX LABEL LETTER","MDD STUDY IN CHANTIX LABEL","2017-07-07 21:13:48","2017-07-07 21:13:48",1,"a00A000000gWwiqIAC"
582,"a00A000000bzpKnIAI",1003,2,1,"FM: PAIN MANAGEMENT SAMPLE INELIGIBLE LETTER","FM: PAIN MANAGEMENT SAMPLE INELIGIBLE","2017-07-07 21:13:48","2017-07-07 21:13:48",1,"a00A000000bzpKnIAI"
586,"a00A000000kDHwxIAG",1001,2,1,"MOA FOLLOW UP LETTER","MOA FOLLOW UP","2017-07-07 21:13:48","2017-07-07 21:13:48",1,"a00A000000kDHwxIAG"
590,"a00A000000kCULaIAO",1001,2,1,"MOA (FOLLOW-UP) LETTER","MOA (FOLLOW-UP)","2017-07-07 21:13:48","2017-07-07 21:13:48",1,"a00A000000kCULaIAO"
595,"a00A00000095LKRIA2",1001,2,1,"NRT LETTER","NRT","2017-07-07 21:13:48","2017-07-07 21:13:48",1,"a00A00000095LKRIA2"
598,"a00A00000096qTZIAY",1003,2,1,"NEP SCI LETTER","NEP SCI","2017-07-07 21:13:48","2017-07-07 21:13:48",1,"a00A00000096qTZIAY"
599,"a00A000000kCULsIAO",1001,2,1,"NPS SORRY I MISSED YOU LETTER","NPS SORRY I MISSED YOU","2017-07-07 21:13:48","2017-07-07 21:13:48",1,"a00A000000kCULsIAO"
600,"a00A000000bzpKVIAY",1003,2,1,"PDPN EFFICACY (SPECIALIST) SAMPLE ELIGIBLE LETTER","PDPN EFFICACY (SPECIALIST) SAMPLE ELIGIBLE","2017-07-07 21:13:48","2017-07-07 21:13:48",1,"a00A000000bzpKVIAY"
602,"a00A000000bzpKXIAY",1003,2,1,"NEP SCI SAMPLE ELIGIBLE LETTER","NEP SCI SAMPLE ELIGIBLE","2017-07-07 21:13:48","2017-07-07 21:13:48",1,"a00A000000bzpKXIAY"
604,"a00A0000000quLcIAI",1003,2,1,"PDPN & PHN LETTER","PDPN & PHN","2017-07-07 21:13:48","2017-07-07 21:13:48",1,"a00A0000000quLcIAI"
605,"a00A000000c1tQJIAY",1001,2,1,"NEW NPS INFO IN CHX LABEL LETTER","NEW NPS INFO IN CHX LABEL","2017-07-07 21:13:48","2017-07-07 21:13:48",1,"a00A000000c1tQJIAY"
607,"a00A000000kDHx3IAG",1001,2,1,"NPS FOLLOW UP LETTER","NPS FOLLOW UP","2017-07-07 21:13:48","2017-07-07 21:13:48",1,"a00A000000kDHx3IAG"
610,"a00A000000kCULfIAO",1001,2,1,"NPS FOLLOWUP LETTER","NPS FOLLOWUP","2017-07-07 21:13:48","2017-07-07 21:13:48",1,"a00A000000kCULfIAO"
611,"a00A00000096mBtIAI",1003,2,1,"PDPN EFFICACY (PCP) LETTER","PDPN EFFICACY (PCP)","2017-07-07 21:13:48","2017-07-07 21:13:48",1,"a00A00000096mBtIAI"
612,"a00A000000kCULuIAO",1001,2,1,"MDD (FOLLOW-UP) LETTER","MDD (FOLLOW-UP)","2017-07-07 21:13:48","2017-07-07 21:13:48",1,"a00A000000kCULuIAO"
614,"a00A000000978lQIAQ",1003,2,1,"PDPN EFFICACY (SPECIALIST) LETTER","PDPN EFFICACY (SPECIALIST)","2017-07-07 21:13:48","2017-07-07 21:13:48",1,"a00A000000978lQIAQ"
617,"a00A0000000quLaIAI",1003,2,1,"POS TOMSON (CLINICALLY BRANDED) LETTER","POS TOMSON (CLINICALLY BRANDED)","2017-07-07 21:13:48","2017-07-07 21:13:48",1,"a00A0000000quLaIAI"
619,"a00A0000006C8R8IAK",1003,2,1,"RBU_SOUTH_EMERGING SCIENCE LETTER","RBU_SOUTH_EMERGING SCIENCE","2017-07-07 21:13:48","2017-07-07 21:13:48",1,"a00A0000006C8R8IAK"
620,"a00A000000bzpK3IAI",1003,2,1,"NEP SCI SAMPLE INELIGIBLE LETTER","NEP SCI SAMPLE INELIGIBLE","2017-07-07 21:13:48","2017-07-07 21:13:48",1,"a00A000000bzpK3IAI"
622,"a00A000000kCULgIAO",1001,2,1,"MOA (SORRY I MISSED YOU) LETTER","MOA (SORRY I MISSED YOU)","2017-07-07 21:13:48","2017-07-07 21:13:48",1,"a00A000000kCULgIAO"
623,"a00A000000bzpK5IAI",1003,2,1,"PDPN EFFICACY (PCP) SAMPLE ELIGIBLE LETTER","PDPN EFFICACY (PCP) SAMPLE ELIGIBLE","2017-07-07 21:13:48","2017-07-07 21:13:48",1,"a00A000000bzpK5IAI"
624,"a00A000000bzpKkIAI",1003,2,1,"PDPN EFFICACY (SPECIALIST) SAMPLE INELIGIBLE LETTER","PDPN EFFICACY (SPECIALIST) SAMPLE INELIGIBLE","2017-07-07 21:13:48","2017-07-07 21:13:48",1,"a00A000000bzpKkIAI"
627,"a00A00000095AFZIA2",1003,2,1,"RBU_SOUTH_AAN_GUIDELINE LETTER","RBU_SOUTH_AAN_GUIDELINE","2017-07-07 21:13:48","2017-07-07 21:13:48",1,"a00A00000095AFZIA2"
628,"a00A000000kCULdIAO",1001,2,1,"NPS LETTER","NPS","2017-07-07 21:13:48","2017-07-07 21:13:48",1,"a00A000000kCULdIAO"
630,"a00A000000kDiu7IAC",1001,2,1567,"RETREATMENT FOLLOW UP LETTER","RETREATMENT FOLLOW UP","2017-07-07 21:13:48","2017-07-07 21:13:48",1,"a00A000000kDiu7IAC"
631,"a00A00000095y1wIAA",1001,2,1,"PROGRAM LETTERS BEING UPDATED WILL RELAUNCH IN SEPTEMBER LETTER","PROGRAM LETTERS BEING UPDATED WILL RELAUNCH IN SEPTEMBER","2017-07-07 21:13:48","2017-07-07 21:13:48",1,"a00A00000095y1wIAA"
632,"a00A0000000quLZIAY",1003,2,1,"POS TOMSON (PROMOTIONALLY BRANDED) LETTER","POS TOMSON (PROMOTIONALLY BRANDED)","2017-07-07 21:13:48","2017-07-07 21:13:48",1,"a00A0000000quLZIAY"
636,"a00A0000006C8RFIA0",1003,2,1,"RBU_SOUTH_FIBRO PAIN PATHWAYS LETTER","RBU_SOUTH_FIBRO PAIN PATHWAYS","2017-07-07 21:13:48","2017-07-07 21:13:48",1,"a00A0000006C8RFIA0"
639,"a00A0000003AP33IAG",1001,2,1,"SAFETY LETTER","SAFETY","2017-07-07 21:13:48","2017-07-07 21:13:48",1,"a00A0000003AP33IAG"
641,"a00A0000006C8RHIA0",1003,2,1,"RBU_SOUTH_FIBROMYALGIA REINFORCEMENT LETTER","RBU_SOUTH_FIBROMYALGIA REINFORCEMENT","2017-07-07 21:13:48","2017-07-07 21:13:48",1,"a00A0000006C8RHIA0"
645,"a00A00000095LKcIAM",1001,2,1,"SAFETY NPS LETTER","SAFETY NPS","2017-07-07 21:13:48","2017-07-07 21:13:48",1,"a00A00000095LKcIAM"
655,"a00A0000006C8R6IAK",1003,2,1,"RBU_SOUTH_PDPN & PHN LETTER","RBU_SOUTH_PDPN & PHN","2017-07-07 21:13:48","2017-07-07 21:13:48",1,"a00A0000006C8R6IAK"
656,"a00A000000lcIXsIAM",1001,2,1567,"STAYING QUIT FOLLOW UP LETTER","STAYING QUIT FOLLOW UP","2017-07-07 21:13:48","2017-07-07 21:13:48",1,"a00A000000lcIXsIAM"
657,"a00A000000bzpKDIAY",1003,2,1,"PDPN EFFICACY (PCP) SAMPLE INELIGIBLE LETTER","PDPN EFFICACY (PCP) SAMPLE INELIGIBLE","2017-07-07 21:13:48","2017-07-07 21:13:48",1,"a00A000000bzpKDIAY"
661,"a00A000000byPiSIAU",1001,2,1,"STARTERS DOSING LETTER","STARTERS DOSING","2017-07-07 21:13:48","2017-07-07 21:13:48",1,"a00A000000byPiSIAU"
703,"a3RA00000001MtAMAU",1001,1,1,"Kentucky RTE","Kentucky RTE","2017-08-31 23:46:47","2017-08-31 23:46:47",1,"a3RA00000001MtAMAU"
704,"a00A000000nsz3WIAQ",1003,2,1,"DPN LESSER SHIFT LETTER LETTER","DPN LESSER SHIFT LETTER","2017-09-04 23:08:58","2017-09-04 23:08:58",1,"a00A000000nsz3WIAQ"
705,"a00A000000nsz3QIAQ",1003,2,1,"DPN WINNING FORMULA LETTER","DPN WINNING FORMULA","2017-09-04 23:08:58","2017-09-04 23:08:58",1,"a00A000000nsz3QIAQ"
706,"a00A000000nsz3PIAQ",1003,2,1,"FM WINNING FORMULA LETTER","FM WINNING FORMULA","2017-09-04 23:08:58","2017-09-04 23:08:58",1,"a00A000000nsz3PIAQ"
710,"a3RA00000001MxcMAE",1003,1,1,"AAN Guidelines RTE","AAN Guidelines RTE","2017-09-07 22:47:07","2017-09-07 22:47:07",1,"a3RA00000001MxcMAE"
715,"a3RA00000001QiQMAU",1003,1,1,"LYRICA DPN Dosing RTE","LYRICA DPN Dosing RTE","2017-09-22 23:31:01","2017-09-22 23:31:01",1,"a3RA00000001QiQMAU"
716,"a3RA00000001QiNMAU",1003,1,1,"LYRICA FM Dosing RTE","LYRICA FM Dosing RTE","2017-09-22 23:31:01","2017-09-22 23:31:01",1,"a3RA00000001QiNMAU"
717,"a3RA00000001QihMAE",1003,1,1,"Why LYRICA RTE","Why LYRICA RTE","2017-09-27 00:47:17","2017-09-27 00:47:17",1,"a3RA00000001QihMAE"
718,"a3RA00000001QirMAE",1003,1,1,"Co-pay Card RTE","Co-pay Card RTE","2017-09-27 00:47:17","2017-09-27 00:47:17",1,"a3RA00000001QirMAE"
719,"a3RA00000001QimMAE",1003,1,1,"Formulary Pro RTE","Formulary Pro RTE","2017-09-27 00:47:17","2017-09-27 00:47:17",1,"a3RA00000001QimMAE"
725,"a1JA0000002F6a5MAC",1001,3,1,"CHANTIX 1.1 iDetail","CHANTIX 1.1 iDetail","2017-10-28 02:00:15","2017-10-28 02:00:15",0,"a1JA0000002F6a5MAC"
726,"a1JA00000033wLGMAY",1001,3,1,"CHANTIX 1.3 iDetail","CHANTIX 1.3 iDetail","2017-10-28 02:00:15","2017-10-28 02:00:15",0,"a1JA00000033wLGMAY"
727,"a1JA0000003FoPuMAK",1001,3,1,"CHANTIX 1.4 iDetail","CHANTIX 1.4 iDetail","2017-10-28 02:00:15","2017-10-28 02:00:15",0,"a1JA0000003FoPuMAK"
729,"a1JA0000002fnMcMAI",1001,3,1,"CHANTIX iDetail 1.5","CHANTIX iDetail 1.5","2017-10-28 02:00:15","2017-10-28 02:00:15",0,"a1JA0000002fnMcMAI"
730,"a1JA0000003hHUEMA2",1001,3,1,"CHANTIX iDetail 1.7","CHANTIX iDetail 1.7","2017-10-28 02:00:15","2017-10-28 02:00:15",0,"a1JA0000003hHUEMA2"
731,"a1JA000000292kiMAA",1001,3,1,"CHANTIX 1.2 iDetail","CHANTIX 1.2 iDetail","2017-10-28 02:00:15","2017-10-28 02:00:15",0,"a1JA000000292kiMAA"
733,"a1JA0000002frN5MAI",1001,3,1,"CHANTIX iDetail 1.6","CHANTIX iDetail 1.6","2017-10-28 02:00:15","2017-10-28 02:00:15",0,"a1JA0000002frN5MAI"
771,"a1JA0000002FzsYMAS",1003,3,1565,"DPN Pain Severity Category SHIFT Video","DPN Pain Severity Category SHIFT Video","2017-10-28 02:00:16","2017-10-28 02:00:16",0,"a1JA0000002FzsYMAS"
774,"a1JA0000002frQsMAI",1003,3,1,"Lyrica DPN v1.6","Lyrica DPN v1.6","2017-10-28 02:00:16","2017-10-28 02:00:16",0,"a1JA0000002frQsMAI"
776,"a1JA0000002frQnMAI",1003,3,1,"Lyrica FM v1.6","Lyrica FM v1.6","2017-10-28 02:00:16","2017-10-28 02:00:16",0,"a1JA0000002frQnMAI"
777,"a1JA000000292k4MAA",1003,3,1565,"LYRICA PHN January POA 2016 v1.1","LYRICA PHN January POA 2016 v1.1","2017-10-28 02:00:16","2017-10-28 02:00:16",0,"a1JA000000292k4MAA"
778,"a1JA00000033wLQMAY",1003,3,1565,"Lyrica FM Titration 2016 v1.3","Lyrica FM Titration 2016 v1.3","2017-10-28 02:00:16","2017-10-28 02:00:16",0,"a1JA00000033wLQMAY"
779,"a1JA000000292kEMAQ",1003,3,1565,"Lyrica FM January POA 2016 v1.1","Lyrica FM January POA 2016 v1.1","2017-10-28 02:00:16","2017-10-28 02:00:16",0,"a1JA000000292kEMAQ"
780,"a1JA000000292k9MAA",1003,3,1565,"LYRICA NeP SCI January POA 2016 v1.1","LYRICA NeP SCI January POA 2016 v1.1","2017-10-28 02:00:16","2017-10-28 02:00:16",0,"a1JA000000292k9MAA"
781,"a1JA0000002fnM8MAI",1003,3,1565,"Lyrica DPN v1.5","Lyrica DPN v1.5","2017-10-28 02:00:16","2017-10-28 02:00:16",0,"a1JA0000002fnM8MAI"
782,"a1JA00000033wLaMAI",1003,3,1565,"Lyrica DPN Titration 2016 v1.3","Lyrica DPN Titration 2016 v1.3","2017-10-28 02:00:16","2017-10-28 02:00:16",0,"a1JA00000033wLaMAI"
783,"a1JA000000292kJMAQ",1003,3,1565,"Lyrica DPN January POA 2016 v1.1","Lyrica DPN January POA 2016 v1.1","2017-10-28 02:00:16","2017-10-28 02:00:16",0,"a1JA000000292kJMAQ"
784,"a1JA0000002fnMDMAY",1003,3,1565,"Lyrica FM v1.5","Lyrica FM v1.5","2017-10-28 02:00:16","2017-10-28 02:00:16",0,"a1JA0000002fnMDMAY"
785,"a1JA00000028mK8MAI",1003,3,1565,"FM Lyrica MOA Video","FM Lyrica MOA Video","2017-10-28 02:00:16","2017-10-28 02:00:16",0,"a1JA00000028mK8MAI"
786,"a1JA0000002GMRnMAO",1003,3,1565,"Lyrica DPN August 2015 POA v1.0","Lyrica DPN August 2015 POA v1.0","2017-10-28 02:00:16","2017-10-28 02:00:16",0,"a1JA0000002GMRnMAO"
787,"a1JA0000002wlvZMAQ",1003,3,1565,"LYRICA PHN ISI Update 2016 v1.2","LYRICA PHN ISI Update 2016 v1.2","2017-10-28 02:00:16","2017-10-28 02:00:16",0,"a1JA0000002wlvZMAQ"
789,"a1JA0000002GMRTMA4",1003,3,1565,"LYRICA NeP SCI August 2015 POA v1.0","LYRICA NeP SCI August 2015 POA v1.0","2017-10-28 02:00:16","2017-10-28 02:00:16",0,"a1JA0000002GMRTMA4"
790,"a1JA0000002wlveMAA",1003,3,1565,"Lyrica DPN Titration 2016 v1.2","Lyrica DPN Titration 2016 v1.2","2017-10-28 02:00:16","2017-10-28 02:00:16",0,"a1JA0000002wlveMAA"
791,"a1JA0000002GMRsMAO",1003,3,1565,"Lyrica FM August 2015 POA v1.0","Lyrica FM August 2015 POA v1.0","2017-10-28 02:00:16","2017-10-28 02:00:16",0,"a1JA0000002GMRsMAO"
792,"a1JA0000002wlvjMAA",1003,3,1565,"Lyrica FM Titration 2016 v1.2","Lyrica FM Titration 2016 v1.2","2017-10-28 02:00:16","2017-10-28 02:00:16",0,"a1JA0000002wlvjMAA"
793,"a1JA0000004TuDiMAK",1003,3,1,"Lyrica DPN v2.1","Lyrica DPN v2.1","2017-10-28 02:00:16","2017-10-28 02:00:16",0,"a1JA0000004TuDiMAK"
794,"a1JA0000003FoQ4MAK",1003,3,1565,"Lyrica DPN v1.4","Lyrica DPN v1.4","2017-10-28 02:00:16","2017-10-28 02:00:16",0,"a1JA0000003FoQ4MAK"
795,"a1JA0000004TuDnMAK",1003,3,1,"Lyrica FM v2.1","Lyrica FM v2.1","2017-10-28 02:00:16","2017-10-28 02:00:16",0,"a1JA0000004TuDnMAK"
796,"a1JA0000002wlvUMAQ",1003,3,1565,"LYRICA NeP SCI ISI Update 2016 v1.2","LYRICA NeP SCI ISI Update 2016 v1.2","2017-10-28 02:00:16","2017-10-28 02:00:16",0,"a1JA0000002wlvUMAQ"
797,"a1JA0000002GMRdMAO",1003,3,1565,"LYRICA PHN August POA 2015 v1.0","LYRICA PHN August POA 2015 v1.0","2017-10-28 02:00:16","2017-10-28 02:00:16",0,"a1JA0000002GMRdMAO"
799,"a1JA0000003hHTuMAM",1003,3,1,"Lyrica DPN v2.0","Lyrica DPN v2.0","2017-10-28 02:00:16","2017-10-28 02:00:16",0,"a1JA0000003hHTuMAM"
800,"a1JA0000003FotEMAS",1003,3,1565,"FM Lyrica MOA Video 1.1","FM Lyrica MOA Video 1.1","2017-10-28 02:00:16","2017-10-28 02:00:16",0,"a1JA0000003FotEMAS"
801,"a1JA0000003hHTzMAM",1003,3,1,"Lyrica FM v2.0","Lyrica FM v2.0","2017-10-28 02:00:16","2017-10-28 02:00:16",0,"a1JA0000003hHTzMAM"
802,"a1JA0000004bPVRMA2",1003,3,1,"LYRICA PHN v2.0","LYRICA PHN v2.0","2017-10-28 02:00:16","2017-10-28 02:00:16",0,"a1JA0000004bPVRMA2"
805,"a1JA0000004bPVMMA2",1003,3,1,"LYRICA NeP SCI v2.0","LYRICA NeP SCI v2.0","2017-10-28 02:00:16","2017-10-28 02:00:16",0,"a1JA0000004bPVMMA2"
808,"a1JA0000003FoPzMAK",1003,3,1565,"Lyrica FM v1.4","Lyrica FM v1.4","2017-10-28 02:00:16","2017-10-28 02:00:16",0,"a1JA0000003FoPzMAK"
858,"a0DA000000HSYZZMA5",1001,4,1,"Patients","Patients","2017-10-28 05:28:45","2017-10-28 05:28:45",0,"a0DA000000HSYZZMA5"
859,"a0DA000000aNhtIMAS",1001,4,1,"Comparative Efficacy","EAGLES Label Update","2017-10-28 05:28:45","2017-10-28 05:28:45",0,"a0DA000000aNhtIMAS"
860,"a0DA000000aNhtcMAC",1001,4,1,"Clinical Trials","Summary","2017-10-28 05:28:45","2017-10-28 05:28:45",0,"a0DA000000aNhtcMAC"
861,"a0DA000000JaD3cMAF",1001,4,1,"Summary","Summary","2017-10-28 05:28:45","2017-10-28 05:28:45",0,"a0DA000000JaD3cMAF"
862,"a0DA000000HSYZPMA5",1001,4,1,"Home","Home","2017-10-28 05:28:45","2017-10-28 05:28:45",0,"a0DA000000aNhsyMAC"
863,"a0DA000000aNht3MAC",1001,4,1,"National Default Average","Cost and Coverage","2017-10-28 05:28:45","2017-10-28 05:28:45",0,"a0DA000000aNht3MAC"
864,"a0DA000000HSYZUMA5",1001,4,1,"HCP","HCP","2017-10-28 05:28:45","2017-10-28 05:28:45",0,"a0DA000000HSYZUMA5"
865,"a0DA000000JaD3mMAF",1001,4,1,"Meaningful Use","Meaningful Use","2017-10-28 05:28:45","2017-10-28 05:28:45",0,"a0DA000000JaD3mMAF"
866,"a0DA000000JaD3hMAF",1001,4,1,"12-Week Dosing","12-Week Dosing","2017-10-28 05:28:45","2017-10-28 05:28:45",0,"a0DA000000JaD3hMAF"
867,"a0DA000000JaD3NMAV",1001,4,1,"Superior Efficacy vs. Zyban","Superior Efficacy vs. Zyban","2017-10-28 05:28:45","2017-10-28 05:28:45",0,"a0DA000000JaD3NMAV"
868,"a0DA000000JaD3SMAV",1001,4,1,"Patient Savings","Patient Savings","2017-10-28 05:28:45","2017-10-28 05:28:45",0,"a0DA000000JaD3SMAV"
869,"a0DA000000JaD3XMAV",1001,4,1,"Safety","Safety","2017-10-28 05:28:46","2017-10-28 05:28:46",0,"a0DA000000JaD3XMAV"
870,"a0DA000000JZv5cMAD",1001,4,1,"Safety_WM","Safety_WM","2017-10-28 05:28:46","2017-10-28 05:28:46",0,"a0DA000000JZv5cMAD"
871,"a0DA000000JZv6nMAD",1001,4,1,"Summary_WM","Summary_WM","2017-10-28 05:28:46","2017-10-28 05:28:46",0,"a0DA000000JZv6nMAD"
872,"a0DA000000JZv6iMAD",1001,4,1,"MOA_WM","MOA_WM","2017-10-28 05:28:46","2017-10-28 05:28:46",0,"a0DA000000JZv6iMAD"
873,"a0DA000000JaD3wMAF",1001,4,1,"Alt Quit Date","Alt Quit Date","2017-10-28 05:28:46","2017-10-28 05:28:46",0,"a0DA000000JaD3wMAF"
874,"a0DA000000JaD41MAF",1001,4,1,"MOA","MOA","2017-10-28 05:28:46","2017-10-28 05:28:46",0,"a0DA000000aNhtXMAS"
875,"a0DA000000JZv6xMAD",1001,4,1,"Retreatment_WM","Retreatment_WM","2017-10-28 05:28:46","2017-10-28 05:28:46",0,"a0DA000000JZv6xMAD"
876,"a0DA000000JaD3rMAF",1001,4,1,"Retreatment","Retreatment","2017-10-28 05:28:46","2017-10-28 05:28:46",0,"a0DA000000JaD3rMAF"
877,"a0DA000000JZv6sMAD",1001,4,1,"Alt Quit Date_WM","Alt Quit Date_WM","2017-10-28 05:28:46","2017-10-28 05:28:46",0,"a0DA000000JZv6sMAD"
878,"a0DA000000JZv77MAD",1001,4,1,"12-Week Dosing_WM","12-Week Dosing_WM","2017-10-28 05:28:46","2017-10-28 05:28:46",0,"a0DA000000JZv77MAD"
879,"a0DA000000JZv7HMAT",1001,4,1,"Meaningful Use_WM","Meaningful Use_WM","2017-10-28 05:28:46","2017-10-28 05:28:46",0,"a0DA000000JZv7HMAT"
880,"a0DA000000LyRPlMAN",1001,4,1,"Cost and coverage (C & C)","Cost and coverage (C & C)","2017-10-28 05:28:46","2017-10-28 05:28:46",0,"a0DA000000LyRPlMAN"
881,"a0DA000000LxFphMAF",1001,4,1,"Repeat CHANTIX","Repeat CHANTIX","2017-10-28 05:28:46","2017-10-28 05:28:46",0,"a0DA000000LxFphMAF"
882,"a0DA000000LxFqGMAV",1001,4,1,"Set expectations","Set expectations","2017-10-28 05:28:46","2017-10-28 05:28:46",0,"a0DA000000LxFqGMAV"
883,"a0DA000000JZv72MAD",1001,4,1,"Superior Efficacy vs. Zyban_WM","Superior Efficacy vs. Zyban_WM","2017-10-28 05:28:46","2017-10-28 05:28:46",0,"a0DA000000JZv72MAD"
884,"a0DA000000LxFprMAF",1001,4,1,"Other patient types","Other patient types","2017-10-28 05:28:46","2017-10-28 05:28:46",0,"a0DA000000LxFprMAF"
885,"a0DA000000LxFqkMAF",1001,4,1,"Cost","Cost","2017-10-28 05:28:46","2017-10-28 05:28:46",0,"a0DA000000LxFqkMAF"
886,"a0DA000000LxFlvMAF",1001,4,1,"FLEX QUIT","FLEX QUIT","2017-10-28 05:28:46","2017-10-28 05:28:46",0,"a0DA000000LxFlvMAF"
887,"a0DA000000Ou14aMAB",1001,4,1,"FLEX Quit setup","FLEX QUIT","2017-10-28 05:28:46","2017-10-28 05:28:46",0,"a0DA000000Ou14aMAB"
888,"a0DA000000JZv7CMAT",1001,4,1,"Patient Savings_WM","Patient Savings_WM","2017-10-28 05:28:46","2017-10-28 05:28:46",0,"a0DA000000JZv7CMAT"
889,"a0DA000000Ou14kMAB",1001,4,1,"MDD and smoking","Other patient types","2017-10-28 05:28:46","2017-10-28 05:28:46",0,"a0DA000000aNhtDMAS"
890,"a0DA000000SLOZKMA5",1001,4,1,"Getting started","Getting started","2017-10-28 05:28:46","2017-10-28 05:28:46",0,"a0DA000000aNhszMAC"
891,"a0DA000000LyRPuMAN",1001,4,1,"Updated safety data","Updated safety data","2017-10-28 05:28:46","2017-10-28 05:28:46",0,"a0DA000000LyRPuMAN"
892,"a0DA000000Ou14uMAB",1001,4,1,"Summary/Quit approaches","Summary/Quit approaches","2017-10-28 05:28:46","2017-10-28 05:28:46",0,"a0DA000000Ou14uMAB"
893,"a0DA000000SLOZeMAP",1001,4,1,"Overall Safety/Safety and Tolerability","Overall Safety","2017-10-28 05:28:46","2017-10-28 05:28:46",0,"a0DA000000SLOZeMAP"
894,"a0DA000000SLOZ5MAP",1001,4,1,"FLEX QUIT (setup)","Quit Approaches","2017-10-28 05:28:46","2017-10-28 05:28:46",0,"a0DA000000SLOZ5MAP"
895,"a0DA000000Ou159MAB",1001,4,1,"Favorable Access","Cost and Coverage (C & C)","2017-10-28 05:28:46","2017-10-28 05:28:46",0,"a0DA000000Ou159MAB"
896,"a0DA000000VGigNMAT",1001,4,1,"Reduce to Quit Ebbert et al Reprint Carrier","Reduce to Quit carrier with clinical reprint","2017-10-28 05:28:46","2017-10-28 05:28:46",0,"a0DA000000VGigNMAT"
897,"a0DA000000Ou14pMAB",1001,4,1,"NPS safety/NPS overview","Updated safety data","2017-10-28 05:28:46","2017-10-28 05:28:46",0,"a0DA000000Ou14pMAB"
898,"a0DA000000WzIgrMAF",1001,4,1,"EAGLES Cover Letter","EAGLES Cover Letter with clinical reprint","2017-10-28 05:28:46","2017-10-28 05:28:46",0,"a0DA000000WzIgrMAF"
899,"a0DA000000Ou14fMAB",1001,4,1,"REPEAT CHANTIX setup","REPEAT CHANTIX","2017-10-28 05:28:46","2017-10-28 05:28:46",0,"a0DA000000Ou14fMAB"
900,"a0DA000000XetqiMAB",1001,4,1,"Warnings and Precautions","Safety","2017-10-28 05:28:46","2017-10-28 05:28:46",0,"a0DA000000aNhtSMAS"
901,"a0DA000000XetqnMAB",1001,4,1,"MDD & Smoking","Other patient types","2017-10-28 05:28:46","2017-10-28 05:28:46",0,"a0DA000000XetqnMAB"
902,"a0DA000000ZnukYMAR",1001,4,1,"Cost and coverage","Cost and coverage","2017-10-28 05:28:46","2017-10-28 05:28:46",0,"a0DA000000ZnukYMAR"
903,"a0DA000000XetqsMAB",1001,4,1,"NPS data/NPS overview","NPS data","2017-10-28 05:28:46","2017-10-28 05:28:46",0,"a0DA000000XetqsMAB"
904,"a0DA000000SLOZPMA5",1001,4,1,"Staying on CHANTIX MOA","Staying on CHANTIX","2017-10-28 05:28:46","2017-10-28 05:28:46",0,"a0DA000000SLOZPMA5"
905,"a0DA000000ZnukJMAR",1001,4,1,"EAGLES Label Update Summary","EAGLES Label Update","2017-10-28 05:28:46","2017-10-28 05:28:46",0,"a0DA000000ZnukJMAR"
906,"a0DA000000XetqdMAB",1001,4,1,"Quit Approaches","Quit Approaches","2017-10-28 05:28:46","2017-10-28 05:28:46",0,"a0DA000000aNht8MAC"
907,"a0DA000000WLPDXMA5",1001,4,1,"Staying on CHANTIX","Staying on CHANTIX","2017-10-28 05:28:46","2017-10-28 05:28:46",0,"a0DA000000aNhtNMAS"
1072,"a0DA000000JaD39MAF",1003,4,1,"Dosing and Titration","Dosing and Titration","2017-10-28 05:28:48","2017-10-28 05:28:48",0,"a0DA000000JaD39MAF"
1074,"a0DA000000JaD6bMAF",1003,4,1,"Patient Profile","Patient Profile","2017-10-28 05:28:48","2017-10-28 05:28:48",0,"a0DA000000JaD6bMAF"
1077,"a0DA000000JaD0UMAV",1003,4,1,"Safety and Tolerability","Safety and Tolerability","2017-10-28 05:28:48","2017-10-28 05:28:48",0,"a0DA000000JaD0UMAV"
1079,"a0DA000000b7iGnMAI",1003,4,1,"PHN Clinical Data","Summary","2017-10-28 05:28:48","2017-10-28 05:28:48",0,"a0DA000000b7iGnMAI"
1080,"a0DA000000aNhr7MAC",1003,4,1,"pDPN Pain Cut in Half","Pain Cut in Half","2017-10-28 05:28:48","2017-10-28 05:28:48",0,"a0DA000000aNhr7MAC"
1081,"a0DA000000JaD34MAF",1003,4,1,"Cost and Coverage","Cost and Coverage","2017-10-28 05:28:48","2017-10-28 05:28:48",0,"a0DA000000aNhqiMAC"
1082,"a0DA000000JaD7UMAV",1003,4,1,"Closing","Closing","2017-10-28 05:28:48","2017-10-28 05:28:48",0,"a0DA000000JaD7UMAV"
1083,"a0DA000000JaD3AMAV",1003,4,1,"NeP SCI","NeP SCI","2017-10-28 05:28:48","2017-10-28 05:28:48",0,"a0DA000000JaD3AMAV"
1085,"a0DA000000JaD7jMAF",1003,4,1,"Patient Profiles","Patient Profiles","2017-10-28 05:28:48","2017-10-28 05:28:48",0,"a0DA000000JaD7jMAF"
1086,"a0DA000000JaD1wMAF",1003,4,1,"Summary","Summary","2017-10-28 05:28:48","2017-10-28 05:28:48",0,"a0DA000000JaD1wMAF"
1087,"a0DA000000JaD6RMAV",1003,4,1,"Glycemic Control","Glycemic Control","2017-10-28 05:28:48","2017-10-28 05:28:48",0,"a0DA000000JaD6RMAV"
1088,"a0DA000000JaD6gMAF",1003,4,1,"Multi Indication","Multi Indication","2017-10-28 05:28:48","2017-10-28 05:28:48",0,"a0DA000000JaD6gMAF"
1089,"a0DA000000JaD6MMAV",1003,4,1,"Closing Slide","Closing Slide","2017-10-28 05:28:48","2017-10-28 05:28:48",0,"a0DA000000JaD6MMAV"
1091,"a0DA000000JZv8AMAT",1003,4,1,"Cost and Coverage_WM","Cost and Coverage_WM","2017-10-28 05:28:48","2017-10-28 05:28:48",0,"a0DA000000JZv8AMAT"
1092,"a0DA000000JZv8FMAT",1003,4,1,"Efficacy pDPN Powerful_WM","Efficacy pDPN Powerful_WM","2017-10-28 05:28:48","2017-10-28 05:28:48",0,"a0DA000000JZv8FMAT"
1093,"a0DA000000JaD7oMAF",1003,4,1,"Efficacy","Efficacy","2017-10-28 05:28:48","2017-10-28 05:28:48",0,"a0DA000000JaD7oMAF"
1094,"a0DA000000JaD6WMAV",1003,4,1,"Efficacy pDPN Powerful","Efficacy pDPN Powerful","2017-10-28 05:28:48","2017-10-28 05:28:48",0,"a0DA000000JaD6WMAV"
1095,"a0DA000000JaD7AMAV",1003,4,1,"Efficacy pDPN Rapid","Efficacy pDPN Rapid","2017-10-28 05:28:48","2017-10-28 05:28:48",0,"a0DA000000JaD7AMAV"
1097,"a0DA000000JZv7mMAD",1003,4,1,"Multi Indication_WM","Multi Indication_WM","2017-10-28 05:28:48","2017-10-28 05:28:48",0,"a0DA000000JZv7mMAD"
1098,"a0DA000000JZv7vMAD",1003,4,1,"Glycemic Control_WM","Glycemic Control_WM","2017-10-28 05:28:48","2017-10-28 05:28:48",0,"a0DA000000JZv7vMAD"
1099,"a0DA000000JZv57MAD",1003,4,1,"Closing_WM","Closing_WM","2017-10-28 05:28:48","2017-10-28 05:28:48",0,"a0DA000000JZv57MAD"
1100,"a0DA000000Lx1oxMAB",1003,4,1,"DPN Pain Severity Category SHIFT Video","DPN Pain Severity Category SHIFT Video","2017-10-28 05:28:48","2017-10-28 05:28:48",0,"a0DA000000Lx1oxMAB"
1101,"a0DA000000JZvAGMA1",1003,4,1,"MOA_WM","MOA_WM","2017-10-28 05:28:48","2017-10-28 05:28:48",0,"a0DA000000JZvAGMA1"
1102,"a0DA000000JaD6CMAV",1003,4,1,"Efficacy PHN Powerful","Efficacy PHN Powerful","2017-10-28 05:28:48","2017-10-28 05:28:48",0,"a0DA000000JaD6CMAV"
1103,"a0DA000000JZv85MAD",1003,4,1,"Summary_WM","Summary_WM","2017-10-28 05:28:48","2017-10-28 05:28:48",0,"a0DA000000JZv85MAD"
1104,"a0DA000000JZv8tMAD",1003,4,1,"Efficacy pDPN Rapid_WM","Efficacy pDPN Rapid_WM","2017-10-28 05:28:48","2017-10-28 05:28:48",0,"a0DA000000JZv8tMAD"
1105,"a0DA000000b7hwqMAA",1003,4,1,"NeP SCI Clinical Data","Summary","2017-10-28 05:28:48","2017-10-28 05:28:48",0,"a0DA000000b7hwqMAA"
1106,"a0DA000000JZv8eMAD",1003,4,1,"Closing Slide_Wm","Closing Slide_Wm","2017-10-28 05:28:48","2017-10-28 05:28:48",0,"a0DA000000JZv8eMAD"
1107,"a0DA000000JZv80MAD",1003,4,1,"Safety and Tolerability_WM","Safety and Tolerability_WM","2017-10-28 05:28:48","2017-10-28 05:28:48",0,"a0DA000000JZv80MAD"
1108,"a0DA000000JZv8UMAT",1003,4,1,"Low PK DDIs_WM","Low PK DDIs_WM","2017-10-28 05:28:48","2017-10-28 05:28:48",0,"a0DA000000JZv8UMAT"
1109,"a0DA000000JZv8KMAT",1003,4,1,"NeP SCI_WM","NeP SCI_WM","2017-10-28 05:28:48","2017-10-28 05:28:48",0,"a0DA000000JZv8KMAT"
1110,"a0DA000000Ou0z6MAB",1003,4,1,"Cost/Coverage","Cost and Coverage","2017-10-28 05:28:48","2017-10-28 05:28:48",0,"a0DA000000Ou0z6MAB"
1111,"a0DA000000Ou0zBMAR",1003,4,1,"AE Table","Safety and Tolerability","2017-10-28 05:28:48","2017-10-28 05:28:48",0,"a0DA000000aNhr2MAC"
1112,"a0DA000000JZv9rMAD",1003,4,1,"Patient Profiles_WM","Patient Profiles_WM","2017-10-28 05:28:48","2017-10-28 05:28:48",0,"a0DA000000JZv9rMAD"
1113,"a0DA000000JaD8NMAV",1003,4,1,"MOA","MOA","2017-10-28 05:28:48","2017-10-28 05:28:48",0,"a0DA000000aNhrgMAC"
1114,"a0DA000000Ou0ymMAB",1003,4,1,"Sustained - Improved Function - Cost and Coverage","Summary","2017-10-28 05:28:48","2017-10-28 05:28:48",0,"a0DA000000Ou0ymMAB"
1115,"a0DA000000JaD6HMAV",1003,4,1,"Low PK DDIs","Low PK DDIs","2017-10-28 05:28:48","2017-10-28 05:28:48",0,"a0DA000000JaD6HMAV"
1116,"a0DA000000LwcXhMAJ",1003,4,1,"SHIFT Data Lunch-and Learn Video WM","SHIFT Data Lunch-and Learn Video WM","2017-10-28 05:28:49","2017-10-28 05:28:49",0,"a0DA000000LwcXhMAJ"
1117,"a0DA000000Ou0yrMAB",1003,4,1,"Impaired Function Patient Profile","Patient Profiles","2017-10-28 05:28:49","2017-10-28 05:28:49",0,"a0DA000000Ou0yrMAB"
1118,"a0DA000000JZv9hMAD",1003,4,1,"Efficacy_WM","Efficacy_WM","2017-10-28 05:28:49","2017-10-28 05:28:49",0,"a0DA000000JZv9hMAD"
1119,"a0DA000000LyRTDMA3",1003,4,1,"Safety & Tolerability","Safety & Tolerability","2017-10-28 05:28:49","2017-10-28 05:28:49",0,"a0DA000000LyRTDMA3"
1120,"a0DA000000Ou0z2MAB",1003,4,1,"Dosing","Dosing and Titration","2017-10-28 05:28:49","2017-10-28 05:28:49",0,"a0DA000000Ou0z2MAB"
1121,"a0DA000000JZv8jMAD",1003,4,1,"Efficacy PHN Powerful_WM","Efficacy PHN Powerful_WM","2017-10-28 05:28:49","2017-10-28 05:28:49",0,"a0DA000000JZv8jMAD"
1122,"a0DA000000Ou10EMAR",1003,4,1,"Patient Profile, Powerful, Rapid","Summary","2017-10-28 05:28:49","2017-10-28 05:28:49",0,"a0DA000000Ou10EMAR"
1123,"a0DA000000Ou0zpMAB",1003,4,1,"Dosing SP","Dosing and Titration","2017-10-28 05:28:49","2017-10-28 05:28:49",0,"a0DA000000Ou0zpMAB"
1124,"a0DA000000Ou10OMAR",1003,4,1,"Primary Endpoint","Efficacy pDPN Powerful","2017-10-28 05:28:49","2017-10-28 05:28:49",0,"a0DA000000aNhqxMAC"
1125,"a0DA000000JZv6ZMAT",1003,4,1,"Patient Profile_WM","Patient Profile_WM","2017-10-28 05:28:49","2017-10-28 05:28:49",0,"a0DA000000JZv6ZMAT"
1126,"a0DA000000Ou0zuMAB",1003,4,1,"Cost/Coverage SP","Cost and Coveragae","2017-10-28 05:28:49","2017-10-28 05:28:49",0,"a0DA000000Ou0zuMAB"
1127,"a0DA000000Ou0zaMAB",1003,4,1,"Low PK DDIs SP","Low PK DDIs","2017-10-28 05:28:49","2017-10-28 05:28:49",0,"a0DA000000Ou0zaMAB"
1128,"a0DA000000Ou10dMAB",1003,4,1,"Dosing pDPN","Dosing & Titration","2017-10-28 05:28:49","2017-10-28 05:28:49",0,"a0DA000000Ou10dMAB"
1129,"a0DA000000Ou0zkMAB",1003,4,1,"Patient on Multiple Meds with unresolved Pain","Patient Profile","2017-10-28 05:28:49","2017-10-28 05:28:49",0,"a0DA000000Ou0zkMAB"
1130,"a0DA000000Ou0ywMAB",1003,4,1,"Sustained Pain Relief","Efficacy","2017-10-28 05:28:49","2017-10-28 05:28:49",0,"a0DA000000aNhrHMAS"
1131,"a0DA000000Pt5jMMAR",1003,4,1,"Dosing NeP SCI","Dosing & Titration","2017-10-28 05:28:49","2017-10-28 05:28:49",0,"a0DA000000b7hx5MAA"
1132,"a0DA000000LyRT8MAN",1003,4,1,"Dosing & Titration","Dosing & Titration","2017-10-28 05:28:49","2017-10-28 05:28:49",0,"a0DA000000LyRT8MAN"
1133,"a0DA000000Ou11CMAR",1003,4,1,"Patient Profile,Rapid,Powerful","Summary","2017-10-28 05:28:49","2017-10-28 05:28:49",0,"a0DA000000Ou11CMAR"
1134,"a0DA000000Pt5j7MAB",1003,4,1,"NeP SCI Clinical Data, Cost and Coverage","Summary","2017-10-28 05:28:49","2017-10-28 05:28:49",0,"a0DA000000Pt5j7MAB"
1135,"a0DA000000Ou10JMAR",1003,4,1,"Impact of pDPN","Patient Profile","2017-10-28 05:28:49","2017-10-28 05:28:49",0,"a0DA000000Ou10JMAR"
1136,"a0DA000000JZv8oMAD",1003,4,1,"Dosing and Titration_WM","Dosing and Titration_WM","2017-10-28 05:28:49","2017-10-28 05:28:49",0,"a0DA000000JZv8oMAD"
1137,"a0DA000000Ou11HMAR",1003,4,1,"pDPN Rapid Chart","Efficacy pDPN Rapid","2017-10-28 05:28:49","2017-10-28 05:28:49",0,"a0DA000000Ou11HMAR"
1138,"a0DA000000PrxpfMAB",1003,4,1,"Patient Profile, Rapid, Powerful","Summary","2017-10-28 05:28:49","2017-10-28 05:28:49",0,"a0DA000000PrxpfMAB"
1139,"a0DA000000Ou0zVMAR",1003,4,1,"Sustained-Improved function-Low PK Drug-Drug Interactions-Cost and Coverage","Summary","2017-10-28 05:28:49","2017-10-28 05:28:49",0,"a0DA000000Ou0zVMAR"
1140,"a0DA000000Ou10YMAR",1003,4,1,"DDI List","Low PK DDIs","2017-10-28 05:28:49","2017-10-28 05:28:49",0,"a0DA000000Ou10YMAR"
1141,"a0DA000000Pt5jCMAR",1003,4,1,"16 Week Significant Relief","Efficacy NeP SCI Significant Relief","2017-10-28 05:28:49","2017-10-28 05:28:49",0,"a0DA000000b7hwvMAA"
1142,"a0DA000000WAsFkMAL",1003,4,1,"FM Dosing Chart","Dosing and Titration","2017-10-28 05:28:49","2017-10-28 05:28:49",0,"a0DA000000aNhrbMAC"
1143,"a0DA000000LyRTIMA3",1003,4,1,"Cost & Coverage","Cost & Coverage","2017-10-28 05:28:49","2017-10-28 05:28:49",0,"a0DA000000LyRTIMA3"
1144,"a0DA000000Ou0zfMAB",1003,4,1,"AE Table SP","Safety and Tolerability","2017-10-28 05:28:49","2017-10-28 05:28:49",0,"a0DA000000Ou0zfMAB"
1145,"a0DA000000SLDZUMA5",1003,4,1,"FM Lyrica MOA Video","FM Lyrica MOA Video","2017-10-28 05:28:49","2017-10-28 05:28:49",0,"a0DA000000SLDZUMA5"
1146,"a0DA000000Pt5m1MAB",1003,4,1,"DPN Patient Profile, Powerful, Rapid","Summary","2017-10-28 05:28:49","2017-10-28 05:28:49",0,"a0DA000000Pt5m1MAB"
1147,"a0DA000000WAsF6MAL",1003,4,1,"pDPN titration stats","Dose Response Data","2017-10-28 05:28:49","2017-10-28 05:28:49",0,"a0DA000000WAsF6MAL"
1148,"a0DA000000Pt5maMAB",1003,4,1,"Pain Relief in Patients on med for comorbid depression","Crossover Efficacy","2017-10-28 05:28:49","2017-10-28 05:28:49",0,"a0DA000000Pt5maMAB"
1149,"a0DA000000Ou11WMAR",1003,4,1,"Low PK DDIs DPN","Low PK DDIs","2017-10-28 05:28:49","2017-10-28 05:28:49",0,"a0DA000000Ou11WMAR"
1150,"a0DA000000ZoOKnMAN",1003,4,1,"pDPN Profile","Patient Profiles","2017-10-28 05:28:49","2017-10-28 05:28:49",0,"a0DA000000aNhqnMAC"
1151,"a0DA000000Pt5kjMAB",1003,4,1,"Powerful Relief","Efficacy PHN Powerful","2017-10-28 05:28:49","2017-10-28 05:28:49",0,"a0DA000000b7iGsMAI"
1152,"a0DA000000WKgpJMAT",1003,4,1,"PBP791102 FM Titration Leave Behind_January 2016 POA","Lyrica FM Titration leave behind","2017-10-28 05:28:49","2017-10-28 05:28:49",0,"a0DA000000WKgpJMAT"
1153,"a0DA000000Ou0zLMAR",1003,4,1,"4 Painful Conditions","Multi Indication","2017-10-28 05:28:49","2017-10-28 05:28:49",0,"a0DA000000aNhqdMAC"
1154,"a0DA000000XetrWMAR",1003,4,1,"Build a Patient","Patient Profiles","2017-10-28 05:28:49","2017-10-28 05:28:49",0,"a0DA000000XetrWMAR"
1155,"a0DA000000Ou10xMAB",1003,4,1,"PHN Primary Endpoint","Efficacy PHN Powerful","2017-10-28 05:28:49","2017-10-28 05:28:49",0,"a0DA000000Ou10xMAB"
1156,"a0DA000000WAsF7MAL",1003,4,1,"pDPN Dosing Chart","Dosing and Titration","2017-10-28 05:28:49","2017-10-28 05:28:49",0,"a0DA000000WAsF7MAL"
1157,"a0DA000000WKgpKMAT",1003,4,1,"PBP791103 pDPN Titration Leave Behind January 2016 POA","PBP791103 pDPN Titration Leave Behind January 2016 POA","2017-10-28 05:28:49","2017-10-28 05:28:49",0,"a0DA000000WKgpKMAT"
1158,"a0DA000000YmkZFMAZ",1003,4,1,"DPN Dosing Chart","Dosing and Titration","2017-10-28 05:28:49","2017-10-28 05:28:49",0,"a0DA000000aNhqsMAC"
1159,"a0DA000000Pt5mkMAB",1003,4,1,"Sustained-Improved Function-Cost and Coverage","Summary","2017-10-28 05:28:49","2017-10-28 05:28:49",0,"a0DA000000Pt5mkMAB"
1160,"a0DA000000Ou112MAB",1003,4,1,"Indication","NeP SCI","2017-10-28 05:28:49","2017-10-28 05:28:49",0,"a0DA000000Ou112MAB"
1162,"a0DA000000Pt5keMAB",1003,4,1,"PHN Clinical Data, Cost and Coverage","Summary","2017-10-28 05:28:49","2017-10-28 05:28:49",0,"a0DA000000Pt5keMAB"
1163,"a0DA000000WKgpHMAT",1003,4,1,"Why Lyrica Office Staff Kit","This is a cost and coverage resource designed for the Office Staff","2017-10-28 05:28:49","2017-10-28 05:28:49",0,"a0DA000000WKgpHMAT"
1167,"a0DA000000ZoO44MAF",1003,4,1,"Impaired Function 1","Patient Profiles","2017-10-28 05:28:49","2017-10-28 05:28:49",0,"a0DA000000aNhqoMAC"
1169,"a0DA000000XetrgMAB",1003,4,1,"Arnold Efficacy","Arnold Efficacy","2017-10-28 05:28:49","2017-10-28 05:28:49",0,"a0DA000000aNhrMMAS"
1170,"a0DA000000Pt5kpMAB",1003,4,1,"Dosing PHN","Dosing & Titration","2017-10-28 05:28:49","2017-10-28 05:28:49",0,"a0DA000000b7iGxMAI"
1172,"a0DA000000WAsG9MAL",1003,4,1,"FM titration stats","Dose Response Data","2017-10-28 05:28:49","2017-10-28 05:28:49",0,"a0DA000000WAsG9MAL"
1177,"a0DA000000WKgpIMAT",1003,4,1,"LYRICA Patient Management Kit","This is the new patient resource addressing titration and what to expect from Lyrica treatment","2017-10-28 05:28:49","2017-10-28 05:28:49",0,"a0DA000000WKgpIMAT"
1355,"a3RA0000000HO6iCONSER",1001,1,1564,"Chantix Srini New Message lt20 Conservative Test","Chantix Srini New Message lt20 Conservative Test","2018-01-21 12:03:00","2018-01-21 12:03:00",1,"a00A000000mgCONSER"
1356,"a3RA0000000HO6iMODERA",1001,1,1564,"Chantix Srini New Message lt20 Moderate Test","Chantix Srini New Message lt20 Moderate Test","2018-01-21 12:03:00","2018-01-21 12:03:00",1,"a00A000000mgMODERA"
1357,"a3RA0000000HO6iAGRESS",1001,1,1564,"Chantix Srini New Message lt20 Agressive Test","Chantix Srini New Message lt20 Agressive Test","2018-01-21 12:03:00","2018-01-21 12:03:00",1,"a00A000000mgAGRESS"
1358,"a3RA0000000HO6iCONSE2",1001,1,1564,"Chantix Srini New Message gt20 Conservative Test","Chantix Srini New Message gt20 Conservative Test","2018-01-21 12:03:00","2018-02-17 05:01:10",1,"a00A000000mgCONSE2"
1359,"a3RA0000000HO6iMODER2",1001,1,1564,"Chantix Srini Brand New Message Entry Moderate Test","Chantix Srini Brand New Message Entry Moderate Test","2018-01-21 12:03:00","2018-01-21 12:03:00",1,"a00A000000mgMODER2"
1360,"a3RA0000000HO6iAGRRE2",1001,1,1564,"Chantix Srini Brand New Message Entry Agressive Test","Chantix Srini Brand New Message Entry Agressive Test","2018-01-21 12:03:00","2018-01-21 12:03:00",1,"a00A000000mgAGRRE2"
1361,"a3RA0000000HO6iSRI",1001,1,1564,"Srini Brand New Message Entry Test: No Interactions and Events","Srini Brand New Message Entry Test: No Interactions and Events","2018-01-21 12:03:00","2018-01-21 12:03:00",1,"a00A000000mgMSRINI"
