"repActionTypeId","repActionTypeName","createdAt","updatedAt"
1,"OTHER","2015-10-29 01:37:00","2015-10-29 01:37:00"
2,"TOUCH","2015-10-29 01:37:00","2015-10-29 01:37:00"
3,"VISIT","2015-10-29 01:37:00","2015-10-29 01:37:00"
4,"VISIT_DETAIL","2015-10-29 01:37:00","2015-10-29 01:37:00"
5,"VISIT_SAMPLES","2015-10-29 01:37:00","2015-10-29 01:37:00"
6,"VISIT_COPAYS","2015-10-29 01:37:00","2015-10-29 01:37:00"
7,"VISIT_EMAIL","2015-10-29 01:37:00","2015-10-29 01:37:00"
8,"SEND","2015-10-29 01:37:00","2015-10-29 01:37:00"
9,"GROUP_VISIT","2015-10-29 01:37:00","2015-10-29 01:37:00"
10,"GROUP_DETAIL","2015-10-29 01:37:00","2015-10-29 01:37:00"
11,"APPOINTMENT_DETAIL","2015-10-29 01:37:00","2015-10-29 01:37:00"
12,"SEND_ANY","2015-10-29 01:37:01","2015-10-29 01:37:01"
13,"WEB_INTERACTION","2016-05-27 17:39:10","2016-05-27 17:39:10"
14,"WEB_EDETAIL","2016-05-27 17:39:10","2016-05-27 17:39:10"
