repId,accountId,completeProb,completeConfidence,rescheduleProb,rescheduleConfidence,learningRunUID,learningBuildUID,runDate,createdAt,updatedAt
1505,165595,1,1,0.333333333333333,0.466555567127219,"RUN_UID","unit-test-anchor",2017-11-01,2019-06-28 11:41:59,2019-06-28 11:41:59
1505,169485,0,1,1,1,"RUN_UID","unit-test-anchor",2017-11-01,2019-06-28 11:41:59,2019-06-28 11:41:59
1505,174513,0,1,0,1,"RUN_UID","unit-test-anchor",2017-11-01,2019-06-28 11:41:59,2019-06-28 11:41:59
1505,186863,0,1,0,1,"RUN_UID","unit-test-anchor",2017-11-01,2019-06-28 11:41:59,2019-06-28 11:41:59
1505,190907,0,1,1,1,"RUN_UID","unit-test-anchor",2017-11-01,2019-06-28 11:41:59,2019-06-28 11:41:59
1505,200496,0,1,1,1,"RUN_UID","unit-test-anchor",2017-11-01,2019-06-28 11:41:59,2019-06-28 11:41:59
1505,201005,0,1,0,1,"RUN_UID","unit-test-anchor",2017-11-01,2019-06-28 11:41:59,2019-06-28 11:41:59
1605,421984,1,1,0,1,"RUN_UID","unit-test-anchor",2017-11-01,2019-06-28 11:41:59,2019-06-28 11:41:59
