datefield, day_of_week, calendar_year, calendar_quarter, quarter_value, month_of_year, day_of_month, week_label, week_value, month_value, month_value_full,month_label, is_holiday, is_weekend, is_last_day_of_month
2018-01-01,2,2018,1,2018Q1,1,1,2018-01-05,2018-01-05,2018-01,2018-01-01,"January 1, 2018",1,0,0
2018-01-02,3,2018,1,2018Q1,1,2,2018-01-05,2018-01-05,2018-01,2018-01-01,"January 1, 2018",0,0,0
2018-01-03,4,2018,1,2018Q1,1,3,2018-01-05,2018-01-05,2018-01,2018-01-01,"January 1, 2018",0,0,0
2018-01-04,5,2018,1,2018Q1,1,4,2018-01-05,2018-01-05,2018-01,2018-01-01,"January 1, 2018",0,0,0
2018-01-05,6,2018,1,2018Q1,1,5,2018-01-05,2018-01-05,2018-01,2018-01-01,"January 1, 2018",0,1,0
2018-01-06,7,2018,1,2018Q1,1,6,2018-01-05,2018-01-05,2018-01,2018-01-01,"January 1, 2018",0,1,0
2018-01-07,1,2018,1,2018Q1,1,7,2018-01-12,2018-01-12,2018-01,2018-01-01,"January 1, 2018",0,0,0
2018-01-08,2,2018,1,2018Q1,1,8,2018-01-12,2018-01-12,2018-01,2018-01-01,"January 1, 2018",0,0,0
2018-01-09,3,2018,1,2018Q1,1,9,2018-01-12,2018-01-12,2018-01,2018-01-01,"January 1, 2018",0,0,0
2018-01-10,4,2018,1,2018Q1,1,10,2018-01-12,2018-01-12,2018-01,2018-01-01,"January 1, 2018",0,0,0
2018-01-11,5,2018,1,2018Q1,1,11,2018-01-12,2018-01-12,2018-01,2018-01-01,"January 1, 2018",0,0,0
2018-01-12,6,2018,1,2018Q1,1,12,2018-01-12,2018-01-12,2018-01,2018-01-01,"January 1, 2018",0,1,0
2018-01-13,7,2018,1,2018Q1,1,13,2018-01-12,2018-01-12,2018-01,2018-01-01,"January 1, 2018",0,1,0
2018-01-14,1,2018,1,2018Q1,1,14,2018-01-19,2018-01-19,2018-01,2018-01-01,"January 1, 2018",0,0,0
2018-01-15,2,2018,1,2018Q1,1,15,2018-01-19,2018-01-19,2018-01,2018-01-01,"January 1, 2018",1,0,0
2018-01-16,3,2018,1,2018Q1,1,16,2018-01-19,2018-01-19,2018-01,2018-01-01,"January 1, 2018",0,0,0
2018-01-17,4,2018,1,2018Q1,1,17,2018-01-19,2018-01-19,2018-01,2018-01-01,"January 1, 2018",0,0,0
2018-01-18,5,2018,1,2018Q1,1,18,2018-01-19,2018-01-19,2018-01,2018-01-01,"January 1, 2018",0,0,0
2018-01-19,6,2018,1,2018Q1,1,19,2018-01-19,2018-01-19,2018-01,2018-01-01,"January 1, 2018",0,1,0
2018-01-20,7,2018,1,2018Q1,1,20,2018-01-19,2018-01-19,2018-01,2018-01-01,"January 1, 2018",0,1,0
2018-01-21,1,2018,1,2018Q1,1,21,2018-01-26,2018-01-26,2018-01,2018-01-01,"January 1, 2018",0,0,0
2018-01-22,2,2018,1,2018Q1,1,22,2018-01-26,2018-01-26,2018-01,2018-01-01,"January 1, 2018",0,0,0
2018-01-23,3,2018,1,2018Q1,1,23,2018-01-26,2018-01-26,2018-01,2018-01-01,"January 1, 2018",0,0,0
2018-01-24,4,2018,1,2018Q1,1,24,2018-01-26,2018-01-26,2018-01,2018-01-01,"January 1, 2018",0,0,0
2018-01-25,5,2018,1,2018Q1,1,25,2018-01-26,2018-01-26,2018-01,2018-01-01,"January 1, 2018",0,0,0
2018-01-26,6,2018,1,2018Q1,1,26,2018-01-26,2018-01-26,2018-01,2018-01-01,"January 1, 2018",0,1,0
2018-01-27,7,2018,1,2018Q1,1,27,2018-01-26,2018-01-26,2018-01,2018-01-01,"January 1, 2018",0,1,0
2018-01-28,1,2018,1,2018Q1,1,28,2018-02-02,2018-02-02,2018-01,2018-01-01,"January 1, 2018",0,0,0
2018-01-29,2,2018,1,2018Q1,1,29,2018-02-02,2018-02-02,2018-01,2018-01-01,"January 1, 2018",0,0,0
2018-01-30,3,2018,1,2018Q1,1,30,2018-02-02,2018-02-02,2018-01,2018-01-01,"January 1, 2018",0,0,0
2018-01-31,4,2018,1,2018Q1,1,31,2018-02-02,2018-02-02,2018-01,2018-01-01,"January 1, 2018",0,0,1
2018-02-01,5,2018,1,2018Q1,2,1,2018-02-02,2018-02-02,2018-02,2018-02-01,"February 1, 2018",0,0,0
2018-02-02,6,2018,1,2018Q1,2,2,2018-02-02,2018-02-02,2018-02,2018-02-01,"February 1, 2018",0,1,0
2018-02-03,7,2018,1,2018Q1,2,3,2018-02-02,2018-02-02,2018-02,2018-02-01,"February 1, 2018",0,1,0
2018-02-04,1,2018,1,2018Q1,2,4,2018-02-09,2018-02-09,2018-02,2018-02-01,"February 1, 2018",0,0,0
2018-02-05,2,2018,1,2018Q1,2,5,2018-02-09,2018-02-09,2018-02,2018-02-01,"February 1, 2018",0,0,0
2018-02-06,3,2018,1,2018Q1,2,6,2018-02-09,2018-02-09,2018-02,2018-02-01,"February 1, 2018",0,0,0
2018-02-07,4,2018,1,2018Q1,2,7,2018-02-09,2018-02-09,2018-02,2018-02-01,"February 1, 2018",0,0,0
2018-02-08,5,2018,1,2018Q1,2,8,2018-02-09,2018-02-09,2018-02,2018-02-01,"February 1, 2018",0,0,0
2018-02-09,6,2018,1,2018Q1,2,9,2018-02-09,2018-02-09,2018-02,2018-02-01,"February 1, 2018",0,1,0
2018-02-10,7,2018,1,2018Q1,2,10,2018-02-09,2018-02-09,2018-02,2018-02-01,"February 1, 2018",0,1,0
2018-02-11,1,2018,1,2018Q1,2,11,2018-02-16,2018-02-16,2018-02,2018-02-01,"February 1, 2018",0,0,0
2018-02-12,2,2018,1,2018Q1,2,12,2018-02-16,2018-02-16,2018-02,2018-02-01,"February 1, 2018",0,0,0
2018-02-13,3,2018,1,2018Q1,2,13,2018-02-16,2018-02-16,2018-02,2018-02-01,"February 1, 2018",0,0,0
2018-02-14,4,2018,1,2018Q1,2,14,2018-02-16,2018-02-16,2018-02,2018-02-01,"February 1, 2018",0,0,0
2018-02-15,5,2018,1,2018Q1,2,15,2018-02-16,2018-02-16,2018-02,2018-02-01,"February 1, 2018",0,0,0
